<?xml version='1.0' encoding='UTF-8'?>
<osm version='0.6' generator='JOSM'>
  <node id='-138917' action='modify' visible='true' lat='48.12175993841' lon='-1.70396179095'>
    <tag k='highway' v='bus_stop' />
  </node>
  <node id='-138979' action='modify' visible='true' lat='48.12120666841' lon='-1.70414686337' />
  <node id='-138980' action='modify' visible='true' lat='48.12119144892' lon='-1.70363858476' />
  <node id='-138981' action='modify' visible='true' lat='48.1213061571' lon='-1.70414129587' />
  <node id='-138982' action='modify' visible='true' lat='48.12127793007' lon='-1.70414300379' />
  <node id='-138983' action='modify' visible='true' lat='48.12126429837' lon='-1.70363744675' />
  <node id='-138984' action='modify' visible='true' lat='48.12129252541' lon='-1.70363573882' />
  <node id='-138987' action='modify' visible='true' lat='48.1219846467' lon='-1.70373380318'>
    <tag k='public_transport' v='platform' />
  </node>
  <node id='-139013' action='modify' visible='true' lat='48.12121159191' lon='-1.70300558276' />
  <node id='-139014' action='modify' visible='true' lat='48.12120980138' lon='-1.70294523306' />
  <node id='-139015' action='modify' visible='true' lat='48.12122399808' lon='-1.70294428788' />
  <node id='-139016' action='modify' visible='true' lat='48.12122578861' lon='-1.70300463758' />
  <node id='-139017' action='modify' visible='true' lat='48.12107327394' lon='-1.70327514544'>
    <tag k='coach' v='yes' />
    <tag k='public_transport' v='platform' />
    <tag k='trolleybus' v='yes' />
  </node>
  <node id='-139109' action='modify' visible='true' lat='48.1182853398' lon='-1.69201389089' />
  <node id='-139110' action='modify' visible='true' lat='48.11825042251' lon='-1.69196963444' />
  <node id='-139111' action='modify' visible='true' lat='48.11869449696' lon='-1.69129908219' />
  <node id='-139112' action='modify' visible='true' lat='48.11885744267' lon='-1.69107914105' />
  <node id='-139113' action='modify' visible='true' lat='48.11921735388' lon='-1.69065132871' />
  <node id='-139114' action='modify' visible='true' lat='48.11953786971' lon='-1.69030800596' />
  <node id='-139115' action='modify' visible='true' lat='48.11976885474' lon='-1.6900813593' />
  <node id='-139116' action='modify' visible='true' lat='48.11978586522' lon='-1.69013098016' />
  <node id='-139117' action='modify' visible='true' lat='48.11950384857' lon='-1.69040456548' />
  <node id='-139118' action='modify' visible='true' lat='48.1192101915' lon='-1.69072106615' />
  <node id='-139119' action='modify' visible='true' lat='48.11885475675' lon='-1.69117167726' />
  <node id='-139120' action='modify' visible='true' lat='48.11869449696' lon='-1.69137150183' />
  <way id='-105711' action='modify' visible='true'>
    <nd ref='-138979' />
    <nd ref='-138980' />
    <tag k='public_transport' v='platform' />
    <tag k='subway' v='yes' />
  </way>
  <way id='-105768' action='modify' visible='true'>
    <nd ref='-138981' />
    <nd ref='-138982' />
    <nd ref='-138983' />
    <nd ref='-138984' />
    <nd ref='-138981' />
    <tag k='indoor' v='area' />
    <tag k='railway' v='platform' />
    <tag k='subway' v='yes' />
  </way>
  <way id='-105849' action='modify' visible='true'>
    <nd ref='-139013' />
    <nd ref='-139016' />
    <nd ref='-139015' />
    <nd ref='-139014' />
    <nd ref='-139013' />
    <tag k='highway' v='bus_stop' />
  </way>
  <way id='-105878' action='modify' visible='true'>
    <nd ref='-139109' />
    <nd ref='-139110' />
    <nd ref='-139111' />
    <nd ref='-139112' />
    <nd ref='-139113' />
    <nd ref='-139114' />
    <nd ref='-139115' />
    <nd ref='-139116' />
    <nd ref='-139117' />
    <nd ref='-139118' />
    <nd ref='-139119' />
    <nd ref='-139120' />
    <nd ref='-139109' />
    <tag k='public_transport' v='platform' />
    <tag k='railway' v='platform' />
  </way>
  <relation id='-99783' action='modify' visible='true'>
    <member type='node' ref='-138987' role='platform' />
    <tag k='public_transport:version' v='2' />
    <tag k='route' v='bus' />
    <tag k='type' v='route' />
  </relation>
  <relation id='-99789' action='modify' visible='true'>
    <member type='way' ref='-105878' role='platform' />
    <tag k='public_transport:version' v='2' />
    <tag k='route' v='train' />
    <tag k='type' v='route' />
  </relation>
</osm>
