<?xml version='1.0' encoding='UTF-8'?>
<osm version='0.6' generator='JOSM'>
  <node id='-141839' action='modify' visible='true' lat='48.85419526731' lon='2.33088721855' />
  <node id='-141840' action='modify' visible='true' lat='48.8541491435' lon='2.33088388049' />
  <node id='-141841' action='modify' visible='true' lat='48.8541491435' lon='2.33095286716' />
  <node id='-141842' action='modify' visible='true' lat='48.85419599944' lon='2.33095620522' />
  <node id='-141843' action='modify' visible='true' lat='48.85419380307' lon='2.33104410759' />
  <node id='-141844' action='modify' visible='true' lat='48.85414694712' lon='2.33104188221' />
  <node id='-141845' action='modify' visible='true' lat='48.85414767925' lon='2.33110196737' />
  <node id='-141846' action='modify' visible='true' lat='48.85419526731' lon='2.33109862931' />
  <node id='-141847' action='modify' visible='true' lat='48.85410301964' lon='2.3310708121' />
  <node id='-141848' action='modify' visible='true' lat='48.85414731381' lon='2.33107197629' />
  <node id='-141849' action='modify' visible='true' lat='48.85419455376' lon='2.33107205989' />
  <node id='-141850' action='modify' visible='true' lat='48.8542384626' lon='2.33107303748' />
  <node id='-141851' action='modify' visible='true' lat='48.85419673156' lon='2.33115871447' />
  <node id='-141852' action='modify' visible='true' lat='48.85413962588' lon='2.33115648909' />
  <node id='-141853' action='modify' visible='true' lat='48.85413962588' lon='2.33123215189' />
  <node id='-141854' action='modify' visible='true' lat='48.85419819581' lon='2.33122992651' />
  <node id='-141855' action='modify' visible='true' lat='48.85408910925' lon='2.33118764436' />
  <node id='-141856' action='modify' visible='true' lat='48.85413962588' lon='2.33118764436' />
  <node id='-141857' action='modify' visible='true' lat='48.8541674466' lon='2.33118764436' />
  <node id='-141858' action='modify' visible='true' lat='48.85416677073' lon='2.33123112051' />
  <node id='-141859' action='modify' visible='true' lat='48.85416598235' lon='2.33129112436' />
  <node id='-141860' action='modify' visible='true' lat='48.85423260561' lon='2.33119098243' />
  <node id='-141861' action='modify' visible='true' lat='48.85419739583' lon='2.33119102042' />
  <node id='-141862' action='modify' visible='true' lat='48.85420258856' lon='2.33136122372' />
  <node id='-141863' action='modify' visible='true' lat='48.85412791189' lon='2.33135566028' />
  <node id='-141864' action='modify' visible='true' lat='48.85412644764' lon='2.33144356264' />
  <node id='-141865' action='modify' visible='true' lat='48.85420258856' lon='2.33144578802' />
  <node id='-141866' action='modify' visible='true' lat='48.85416731603' lon='2.3313585959'>
    <tag k='amenity' v='toilets' />
  </node>
  <node id='-141867' action='modify' visible='true' lat='48.85407812738' lon='2.33139905511' />
  <node id='-141868' action='modify' visible='true' lat='48.85412720708' lon='2.33139797165' />
  <node id='-141869' action='modify' visible='true' lat='48.85420332067' lon='2.3316827906' />
  <node id='-141870' action='modify' visible='true' lat='48.85416232173' lon='2.33159155017' />
  <node id='-141871' action='modify' visible='true' lat='48.85411766214' lon='2.33171394587' />
  <node id='-141872' action='modify' visible='true' lat='48.85411766214' lon='2.33160267705' />
  <node id='-141873' action='modify' visible='true' lat='48.85416085749' lon='2.33151922544' />
  <node id='-141874' action='modify' visible='true' lat='48.85420624917' lon='2.33161269124' />
  <node id='-141875' action='modify' visible='true' lat='48.85420472135' lon='2.33164926252' />
  <node id='-141876' action='modify' visible='true' lat='48.85424944445' lon='2.33172507275' />
  <node id='-141877' action='modify' visible='true' lat='48.85411766214' lon='2.33164829726' />
  <node id='-141878' action='modify' visible='true' lat='48.85407373462' lon='2.33170059361' />
  <node id='-141879' action='modify' visible='true' lat='48.85416305385' lon='2.33168946673' />
  <node id='-141880' action='modify' visible='true' lat='48.85416012536' lon='2.33156150759' />
  <node id='-141881' action='modify' visible='true' lat='48.8537731' lon='2.3337494' />
  <node id='-141882' action='modify' visible='true' lat='48.8537056' lon='2.3337081'>
    <tag k='button_operated' v='no' />
    <tag k='crossing' v='traffic_signals' />
    <tag k='crossing:island' v='no' />
    <tag k='crossing:markings' v='zebra' />
    <tag k='crossing_ref' v='zebra' />
    <tag k='highway' v='crossing' />
    <tag k='kerb' v='lowered' />
    <tag k='tactile_paving' v='yes;no' />
    <tag k='traffic_signals:sound' v='yes' />
    <tag k='traffic_signals:vibration' v='yes' />
  </node>
  <node id='-141883' action='modify' visible='true' lat='48.853636' lon='2.3336644'>
    <tag k='barrier' v='kerb' />
    <tag k='kerb' v='lowered' />
    <tag k='tactile_paving' v='yes' />
  </node>
  <node id='-141884' action='modify' visible='true' lat='48.8538099' lon='2.3335989' />
  <node id='-141885' action='modify' visible='true' lat='48.8538407' lon='2.3336143' />
  <node id='-141886' action='modify' visible='true' lat='48.8538674' lon='2.3336276' />
  <node id='-141887' action='modify' visible='true' lat='48.8538368' lon='2.3337517' />
  <node id='-141888' action='modify' visible='true' lat='48.8538602' lon='2.3337686' />
  <node id='-141889' action='modify' visible='true' lat='48.8538691' lon='2.3338222' />
  <node id='-141890' action='modify' visible='true' lat='48.8538666' lon='2.3338413' />
  <node id='-141891' action='modify' visible='true' lat='48.853843' lon='2.3338291' />
  <node id='-141892' action='modify' visible='true' lat='48.85382' lon='2.3338152' />
  <node id='-141893' action='modify' visible='true' lat='48.8537993' lon='2.3339063' />
  <node id='-141894' action='modify' visible='true' lat='48.8537017' lon='2.334307'>
    <tag k='barrier' v='gate' />
  </node>
  <node id='-141895' action='modify' visible='true' lat='48.8536998' lon='2.3343146' />
  <node id='-141896' action='modify' visible='true' lat='48.8536006' lon='2.3347223' />
  <node id='-141897' action='modify' visible='true' lat='48.8535896' lon='2.3347673' />
  <node id='-141898' action='modify' visible='true' lat='48.8535226' lon='2.3350426' />
  <node id='-141899' action='modify' visible='true' lat='48.8534398' lon='2.3353828' />
  <node id='-141900' action='modify' visible='true' lat='48.853449' lon='2.3354219' />
  <node id='-141901' action='modify' visible='true' lat='48.8536559' lon='2.3355948' />
  <node id='-141902' action='modify' visible='true' lat='48.8538601' lon='2.3357655' />
  <node id='-141903' action='modify' visible='true' lat='48.8538997' lon='2.3356574' />
  <node id='-141904' action='modify' visible='true' lat='48.8538934' lon='2.335652' />
  <node id='-141905' action='modify' visible='true' lat='48.8539576' lon='2.3354766' />
  <node id='-141906' action='modify' visible='true' lat='48.8539593' lon='2.3354779' />
  <node id='-141907' action='modify' visible='true' lat='48.8539646' lon='2.3354634' />
  <node id='-141908' action='modify' visible='true' lat='48.8539629' lon='2.335462' />
  <node id='-141909' action='modify' visible='true' lat='48.8539739' lon='2.3354324' />
  <node id='-141910' action='modify' visible='true' lat='48.8539762' lon='2.3354311' />
  <node id='-141911' action='modify' visible='true' lat='48.8539809' lon='2.3354188' />
  <node id='-141912' action='modify' visible='true' lat='48.853979' lon='2.3354175' />
  <node id='-141913' action='modify' visible='true' lat='48.854044' lon='2.3352399' />
  <node id='-141914' action='modify' visible='true' lat='48.8540505' lon='2.3352439' />
  <node id='-141915' action='modify' visible='true' lat='48.8540524' lon='2.3352382' />
  <node id='-141916' action='modify' visible='true' lat='48.8540914' lon='2.3351342' />
  <node id='-141917' action='modify' visible='true' lat='48.8540897' lon='2.3351328' />
  <node id='-141918' action='modify' visible='true' lat='48.8541242' lon='2.3349882' />
  <node id='-141919' action='modify' visible='true' lat='48.8541661' lon='2.3348151'>
    <tag k='barrier' v='gate' />
    <tag k='source' v='survey 06/2018' />
  </node>
  <node id='-141920' action='modify' visible='true' lat='48.8541987' lon='2.3346801' />
  <node id='-141921' action='modify' visible='true' lat='48.8542576' lon='2.3344362' />
  <node id='-141922' action='modify' visible='true' lat='48.8542851' lon='2.3343226' />
  <node id='-141923' action='modify' visible='true' lat='48.854321' lon='2.334174' />
  <node id='-141924' action='modify' visible='true' lat='48.8543837' lon='2.3339062' />
  <node id='-141925' action='modify' visible='true' lat='48.8543911' lon='2.3339113' />
  <node id='-141926' action='modify' visible='true' lat='48.8543998' lon='2.3339173' />
  <node id='-141927' action='modify' visible='true' lat='48.8543903' lon='2.3339559' />
  <node id='-141928' action='modify' visible='true' lat='48.8542732' lon='2.334434' />
  <node id='-141929' action='modify' visible='true' lat='48.8542565' lon='2.3345021' />
  <node id='-141930' action='modify' visible='true' lat='48.8540334' lon='2.3354322' />
  <node id='-141931' action='modify' visible='true' lat='48.8539411' lon='2.3358138' />
  <node id='-141932' action='modify' visible='true' lat='48.8539385' lon='2.3358235' />
  <node id='-141933' action='modify' visible='true' lat='48.8539349' lon='2.3358289' />
  <node id='-141934' action='modify' visible='true' lat='48.8539296' lon='2.3358326' />
  <node id='-141935' action='modify' visible='true' lat='48.8539255' lon='2.3358336' />
  <node id='-141936' action='modify' visible='true' lat='48.8539202' lon='2.3358309' />
  <node id='-141937' action='modify' visible='true' lat='48.8539168' lon='2.3358281' />
  <node id='-141938' action='modify' visible='true' lat='48.853411' lon='2.3354054' />
  <node id='-141939' action='modify' visible='true' lat='48.8534017' lon='2.3353977' />
  <node id='-141940' action='modify' visible='true' lat='48.8533951' lon='2.3353883' />
  <node id='-141941' action='modify' visible='true' lat='48.8533905' lon='2.3353789' />
  <node id='-141942' action='modify' visible='true' lat='48.8533872' lon='2.3353672' />
  <node id='-141943' action='modify' visible='true' lat='48.8533856' lon='2.3353545' />
  <node id='-141944' action='modify' visible='true' lat='48.8533863' lon='2.3353374' />
  <node id='-141945' action='modify' visible='true' lat='48.8533892' lon='2.3353209' />
  <node id='-141946' action='modify' visible='true' lat='48.8534385' lon='2.3351213' />
  <node id='-141947' action='modify' visible='true' lat='48.853453' lon='2.3350604' />
  <node id='-141948' action='modify' visible='true' lat='48.8538972' lon='2.3334637' />
  <node id='-141949' action='modify' visible='true' lat='48.853888' lon='2.3335152' />
  <node id='-141950' action='modify' visible='true' lat='48.8538462' lon='2.3335793' />
  <node id='-141951' action='modify' visible='true' lat='48.8538377' lon='2.3336335' />
  <node id='-141952' action='modify' visible='true' lat='48.8538065' lon='2.3337672' />
  <node id='-141953' action='modify' visible='true' lat='48.8534166' lon='2.3353863' />
  <node id='-141954' action='modify' visible='true' lat='48.8536795' lon='2.3342946' />
  <node id='-141955' action='modify' visible='true' lat='48.8538939' lon='2.3335916' />
  <node id='-141956' action='modify' visible='true' lat='48.8539028' lon='2.3335964' />
  <node id='-141957' action='modify' visible='true' lat='48.8539102' lon='2.3335998' />
  <node id='-141958' action='modify' visible='true' lat='48.8539099' lon='2.3336143' />
  <node id='-141959' action='modify' visible='true' lat='48.8539108' lon='2.3336212' />
  <node id='-141960' action='modify' visible='true' lat='48.8539158' lon='2.3336371' />
  <node id='-141961' action='modify' visible='true' lat='48.8539191' lon='2.3336428'>
    <tag k='artwork_type' v='bust' />
    <tag k='tourism' v='artwork' />
  </node>
  <node id='-141962' action='modify' visible='true' lat='48.8539228' lon='2.3336491' />
  <node id='-141963' action='modify' visible='true' lat='48.8539358' lon='2.3336597' />
  <node id='-141964' action='modify' visible='true' lat='48.8539409' lon='2.3336613' />
  <node id='-141965' action='modify' visible='true' lat='48.8539374' lon='2.3336793' />
  <node id='-141966' action='modify' visible='true' lat='48.8539356' lon='2.3336793' />
  <node id='-141967' action='modify' visible='true' lat='48.8539297' lon='2.3337074' />
  <node id='-141968' action='modify' visible='true' lat='48.8539318' lon='2.3337081' />
  <node id='-141969' action='modify' visible='true' lat='48.8539307' lon='2.3337158' />
  <node id='-141970' action='modify' visible='true' lat='48.8540562' lon='2.3337693' />
  <node id='-141971' action='modify' visible='true' lat='48.8540742' lon='2.3337769' />
  <node id='-141972' action='modify' visible='true' lat='48.8540764' lon='2.3337663' />
  <node id='-141973' action='modify' visible='true' lat='48.8540864' lon='2.3337698' />
  <node id='-141974' action='modify' visible='true' lat='48.854085' lon='2.3337812' />
  <node id='-141975' action='modify' visible='true' lat='48.854106' lon='2.3337897'>
    <tag k='amenity' v='clock' />
    <tag k='date' v='no' />
    <tag k='display' v='analog' />
    <tag k='indoor' v='no' />
    <tag k='support' v='wall' />
    <tag k='visibility' v='area' />
  </node>
  <node id='-141976' action='modify' visible='true' lat='48.8541303' lon='2.3337995' />
  <node id='-141977' action='modify' visible='true' lat='48.8541307' lon='2.3337915' />
  <node id='-141978' action='modify' visible='true' lat='48.8541359' lon='2.3337922' />
  <node id='-141979' action='modify' visible='true' lat='48.8541336' lon='2.3338049' />
  <node id='-141980' action='modify' visible='true' lat='48.854199' lon='2.3337321' />
  <node id='-141981' action='modify' visible='true' lat='48.8542115' lon='2.3336625' />
  <node id='-141982' action='modify' visible='true' lat='48.8542219' lon='2.333605' />
  <node id='-141983' action='modify' visible='true' lat='48.8538798' lon='2.3334561' />
  <node id='-141984' action='modify' visible='true' lat='48.853863' lon='2.3334534' />
  <node id='-141985' action='modify' visible='true' lat='48.8538498' lon='2.3334635' />
  <node id='-141986' action='modify' visible='true' lat='48.8538423' lon='2.3334736' />
  <node id='-141987' action='modify' visible='true' lat='48.8538348' lon='2.333497' />
  <node id='-141988' action='modify' visible='true' lat='48.8544155' lon='2.3337413' />
  <node id='-141989' action='modify' visible='true' lat='48.8544279' lon='2.3336974' />
  <node id='-141990' action='modify' visible='true' lat='48.854293' lon='2.3337768'>
    <tag k='addr:housenumber' v='1' />
    <tag k='source' v='cadastre-dgi-fr source : Direction Générale des Impôts - Cadastre. Mise à jour : 2010' />
  </node>
  <node id='-141991' action='modify' visible='true' lat='48.8543497' lon='2.3338038' />
  <node id='-141992' action='modify' visible='true' lat='48.8544063' lon='2.3338903' />
  <node id='-141993' action='modify' visible='true' lat='48.8544406' lon='2.3337485' />
  <node id='-141994' action='modify' visible='true' lat='48.8544419' lon='2.3337344' />
  <node id='-141995' action='modify' visible='true' lat='48.8544397' lon='2.3337203' />
  <node id='-141996' action='modify' visible='true' lat='48.8544337' lon='2.3337032' />
  <node id='-141997' action='modify' visible='true' lat='48.8544231' lon='2.3336925' />
  <node id='-141998' action='modify' visible='true' lat='48.8544147' lon='2.3337617' />
  <node id='-141999' action='modify' visible='true' lat='48.8543948' lon='2.3338954' />
  <node id='-142000' action='modify' visible='true' lat='48.8542744' lon='2.3344099' />
  <node id='-142001' action='modify' visible='true' lat='48.8540254' lon='2.3354328' />
  <node id='-142002' action='modify' visible='true' lat='48.853933' lon='2.3358106' />
  <node id='-142003' action='modify' visible='true' lat='48.8539176' lon='2.3358173' />
  <node id='-142004' action='modify' visible='true' lat='48.8538799' lon='2.3357893' />
  <node id='-142005' action='modify' visible='true' lat='48.8534338' lon='2.3354163' />
  <node id='-142006' action='modify' visible='true' lat='48.8541378' lon='2.3347987'>
    <tag k='addr:housenumber' v='9' />
    <tag k='source' v='cadastre-dgi-fr source : Direction Générale des Impôts - Cadastre. Mise à jour : 2010' />
  </node>
  <node id='-142007' action='modify' visible='true' lat='48.8537396' lon='2.3343292' />
  <node id='-142008' action='modify' visible='true' lat='48.8536969' lon='2.3345391' />
  <node id='-142009' action='modify' visible='true' lat='48.8536552' lon='2.334663' />
  <node id='-142010' action='modify' visible='true' lat='48.853616' lon='2.3348149' />
  <node id='-142011' action='modify' visible='true' lat='48.8536083' lon='2.3348852' />
  <node id='-142012' action='modify' visible='true' lat='48.8536144' lon='2.3349334' />
  <node id='-142013' action='modify' visible='true' lat='48.8536299' lon='2.3349712' />
  <node id='-142014' action='modify' visible='true' lat='48.8536513' lon='2.334985' />
  <node id='-142015' action='modify' visible='true' lat='48.8536804' lon='2.334986' />
  <node id='-142016' action='modify' visible='true' lat='48.8537085' lon='2.3349643' />
  <node id='-142017' action='modify' visible='true' lat='48.8537244' lon='2.3349152' />
  <node id='-142018' action='modify' visible='true' lat='48.8537321' lon='2.3348419' />
  <node id='-142019' action='modify' visible='true' lat='48.8537266' lon='2.3347387' />
  <node id='-142020' action='modify' visible='true' lat='48.853735' lon='2.3346237' />
  <node id='-142021' action='modify' visible='true' lat='48.8537237' lon='2.3345622' />
  <node id='-142022' action='modify' visible='true' lat='48.8533903' lon='2.3354322' />
  <node id='-142023' action='modify' visible='true' lat='48.8534006' lon='2.3354212'>
    <tag k='crossing' v='uncontrolled' />
    <tag k='crossing:island' v='no' />
    <tag k='crossing:markings' v='zebra' />
    <tag k='crossing_ref' v='zebra' />
    <tag k='highway' v='crossing' />
    <tag k='kerb' v='lowered' />
    <tag k='tactile_paving' v='yes' />
    <tag k='traffic_signals:sound' v='no' />
  </node>
  <node id='-142024' action='modify' visible='true' lat='48.8553596' lon='2.3476735' />
  <node id='-142025' action='modify' visible='true' lat='48.8553699' lon='2.3476348' />
  <node id='-142026' action='modify' visible='true' lat='48.8553801' lon='2.3475961' />
  <node id='-142027' action='modify' visible='true' lat='48.8553904' lon='2.3475575' />
  <node id='-142028' action='modify' visible='true' lat='48.8551335' lon='2.3474004' />
  <node id='-142029' action='modify' visible='true' lat='48.8551232' lon='2.3474391' />
  <node id='-142030' action='modify' visible='true' lat='48.855113' lon='2.3474778' />
  <node id='-142031' action='modify' visible='true' lat='48.8551027' lon='2.3475164' />
  <node id='-142032' action='modify' visible='true' lat='48.8557374' lon='2.3477666' />
  <node id='-142033' action='modify' visible='true' lat='48.8557272' lon='2.3478058' />
  <node id='-142034' action='modify' visible='true' lat='48.8557221' lon='2.3478254'>
    <tag k='entrance' v='yes' />
  </node>
  <node id='-142035' action='modify' visible='true' lat='48.855717' lon='2.347845' />
  <node id='-142036' action='modify' visible='true' lat='48.8557069' lon='2.3478843' />
  <node id='-142037' action='modify' visible='true' lat='48.8554112' lon='2.3477074' />
  <node id='-142038' action='modify' visible='true' lat='48.8554214' lon='2.3476682' />
  <node id='-142039' action='modify' visible='true' lat='48.8554315' lon='2.347629' />
  <node id='-142040' action='modify' visible='true' lat='48.8554417' lon='2.3475897' />
  <node id='-142041' action='modify' visible='true' lat='48.8550677' lon='2.3473565' />
  <node id='-142042' action='modify' visible='true' lat='48.8550185' lon='2.3475' />
  <node id='-142043' action='modify' visible='true' lat='48.8550172' lon='2.3475163' />
  <node id='-142044' action='modify' visible='true' lat='48.8550196' lon='2.3475292' />
  <node id='-142045' action='modify' visible='true' lat='48.8550264' lon='2.3475399' />
  <node id='-142046' action='modify' visible='true' lat='48.8550864' lon='2.3475754' />
  <node id='-142047' action='modify' visible='true' lat='48.8551085' lon='2.3475647' />
  <node id='-142048' action='modify' visible='true' lat='48.8556811' lon='2.3479049' />
  <node id='-142049' action='modify' visible='true' lat='48.8556863' lon='2.3479322' />
  <node id='-142050' action='modify' visible='true' lat='48.8557053' lon='2.3479445' />
  <node id='-142051' action='modify' visible='true' lat='48.8557111' lon='2.3479483' />
  <node id='-142052' action='modify' visible='true' lat='48.8557202' lon='2.3479483' />
  <node id='-142053' action='modify' visible='true' lat='48.8557287' lon='2.3479444' />
  <node id='-142054' action='modify' visible='true' lat='48.8557349' lon='2.3479372' />
  <node id='-142055' action='modify' visible='true' lat='48.8557424' lon='2.3479208' />
  <node id='-142056' action='modify' visible='true' lat='48.8557836' lon='2.3477808' />
  <node id='-142057' action='modify' visible='true' lat='48.855785' lon='2.3477699' />
  <node id='-142058' action='modify' visible='true' lat='48.8557849' lon='2.3477594' />
  <node id='-142059' action='modify' visible='true' lat='48.8557836' lon='2.3477499' />
  <node id='-142060' action='modify' visible='true' lat='48.8557809' lon='2.3477422' />
  <node id='-142061' action='modify' visible='true' lat='48.8557776' lon='2.3477356' />
  <node id='-142062' action='modify' visible='true' lat='48.8557722' lon='2.3477295'>
    <tag k='barrier' v='kerb' />
    <tag k='kerb' v='lowered' />
    <tag k='tactile_paving' v='yes' />
  </node>
  <node id='-142063' action='modify' visible='true' lat='48.8557515' lon='2.3477172' />
  <node id='-142064' action='modify' visible='true' lat='48.8557332' lon='2.347733' />
  <node id='-142065' action='modify' visible='true' lat='48.8551569' lon='2.3473855' />
  <node id='-142066' action='modify' visible='true' lat='48.8551501' lon='2.3473528' />
  <node id='-142067' action='modify' visible='true' lat='48.8551056' lon='2.347325' />
  <node id='-142068' action='modify' visible='true' lat='48.8550943' lon='2.3473238' />
  <node id='-142069' action='modify' visible='true' lat='48.8550855' lon='2.3473278' />
  <node id='-142070' action='modify' visible='true' lat='48.8550762' lon='2.3473389' />
  <node id='-142071' action='modify' visible='true' lat='48.8552951' lon='2.347166' />
  <node id='-142072' action='modify' visible='true' lat='48.8552846' lon='2.3472053' />
  <node id='-142073' action='modify' visible='true' lat='48.855274' lon='2.3472445' />
  <node id='-142074' action='modify' visible='true' lat='48.8552635' lon='2.3472838' />
  <node id='-142075' action='modify' visible='true' lat='48.8555573' lon='2.3474661' />
  <node id='-142076' action='modify' visible='true' lat='48.8555679' lon='2.3474269' />
  <node id='-142077' action='modify' visible='true' lat='48.8555784' lon='2.3473876' />
  <node id='-142078' action='modify' visible='true' lat='48.855589' lon='2.3473483' />
  <node id='-142079' action='modify' visible='true' lat='48.8558099' lon='2.3474873' />
  <node id='-142080' action='modify' visible='true' lat='48.8557995' lon='2.3475262' />
  <node id='-142082' action='modify' visible='true' lat='48.8557891' lon='2.3475652' />
  <node id='-142083' action='modify' visible='true' lat='48.8557788' lon='2.3476042' />
  <node id='-142084' action='modify' visible='true' lat='48.8556525' lon='2.3475266' />
  <node id='-142085' action='modify' visible='true' lat='48.8556629' lon='2.3474876' />
  <node id='-142086' action='modify' visible='true' lat='48.8556681' lon='2.3474681'>
    <tag k='entrance' v='yes' />
  </node>
  <node id='-142087' action='modify' visible='true' lat='48.8556733' lon='2.3474486' />
  <node id='-142088' action='modify' visible='true' lat='48.8556836' lon='2.3474096' />
  <node id='-142089' action='modify' visible='true' lat='48.8553147' lon='2.3478231' />
  <node id='-142090' action='modify' visible='true' lat='48.8553047' lon='2.3478629' />
  <node id='-142091' action='modify' visible='true' lat='48.8552997' lon='2.3478828'>
    <tag k='entrance' v='yes' />
  </node>
  <node id='-142092' action='modify' visible='true' lat='48.8552946' lon='2.3479026' />
  <node id='-142093' action='modify' visible='true' lat='48.8552845' lon='2.3479424' />
  <node id='-142094' action='modify' visible='true' lat='48.8550267' lon='2.3477932' />
  <node id='-142095' action='modify' visible='true' lat='48.855039' lon='2.3477531' />
  <node id='-142096' action='modify' visible='true' lat='48.8550447' lon='2.347734'>
    <tag k='entrance' v='yes' />
  </node>
  <node id='-142097' action='modify' visible='true' lat='48.8550506' lon='2.3477149' />
  <node id='-142098' action='modify' visible='true' lat='48.855062' lon='2.3476771' />
  <node id='-142099' action='modify' visible='true' lat='48.8556359' lon='2.3481556' />
  <node id='-142100' action='modify' visible='true' lat='48.8553397' lon='2.3479724' />
  <node id='-142101' action='modify' visible='true' lat='48.8553501' lon='2.3479334' />
  <node id='-142102' action='modify' visible='true' lat='48.8553554' lon='2.3479139'>
    <tag k='entrance' v='yes' />
  </node>
  <node id='-142103' action='modify' visible='true' lat='48.8553606' lon='2.3478943' />
  <node id='-142104' action='modify' visible='true' lat='48.855371' lon='2.3478553' />
  <node id='-142105' action='modify' visible='true' lat='48.8556673' lon='2.3480384' />
  <node id='-142106' action='modify' visible='true' lat='48.8556568' lon='2.3480775' />
  <node id='-142107' action='modify' visible='true' lat='48.8556516' lon='2.348097'>
    <tag k='entrance' v='yes' />
  </node>
  <node id='-142108' action='modify' visible='true' lat='48.8556464' lon='2.3481165' />
  <node id='-142109' action='modify' visible='true' lat='48.8550087' lon='2.3478543' />
  <node id='-142110' action='modify' visible='true' lat='48.8556205' lon='2.3482069' />
  <node id='-142111' action='modify' visible='true' lat='48.8556249' lon='2.3482094' />
  <node id='-142112' action='modify' visible='true' lat='48.8556315' lon='2.3482125' />
  <node id='-142113' action='modify' visible='true' lat='48.855638' lon='2.348213' />
  <node id='-142114' action='modify' visible='true' lat='48.8556431' lon='2.3482121' />
  <node id='-142115' action='modify' visible='true' lat='48.8556473' lon='2.3482094' />
  <node id='-142116' action='modify' visible='true' lat='48.8556523' lon='2.3482051' />
  <node id='-142117' action='modify' visible='true' lat='48.855656' lon='2.3482003' />
  <node id='-142118' action='modify' visible='true' lat='48.8556593' lon='2.3481938' />
  <node id='-142119' action='modify' visible='true' lat='48.8556613' lon='2.3481872' />
  <node id='-142120' action='modify' visible='true' lat='48.855708' lon='2.3480331' />
  <node id='-142121' action='modify' visible='true' lat='48.85571' lon='2.3480165' />
  <node id='-142122' action='modify' visible='true' lat='48.8557068' lon='2.3479982' />
  <node id='-142123' action='modify' visible='true' lat='48.8557004' lon='2.3479877' />
  <node id='-142124' action='modify' visible='true' lat='48.8556902' lon='2.3479795' />
  <node id='-142125' action='modify' visible='true' lat='48.8556768' lon='2.3479709' />
  <node id='-142126' action='modify' visible='true' lat='48.8556585' lon='2.3479872' />
  <node id='-142127' action='modify' visible='true' lat='48.8550889' lon='2.347649' />
  <node id='-142128' action='modify' visible='true' lat='48.8550857' lon='2.3476458' />
  <node id='-142129' action='modify' visible='true' lat='48.855075' lon='2.3476185' />
  <node id='-142130' action='modify' visible='true' lat='48.8551817' lon='2.3472993' />
  <node id='-142131' action='modify' visible='true' lat='48.8553336' lon='2.3473915' />
  <node id='-142132' action='modify' visible='true' lat='48.8553824' lon='2.3474209' />
  <node id='-142133' action='modify' visible='true' lat='48.8557578' lon='2.347651' />
  <node id='-142134' action='modify' visible='true' lat='48.8557631' lon='2.3476794' />
  <node id='-142135' action='modify' visible='true' lat='48.8557823' lon='2.3476922'>
    <tag k='barrier' v='kerb' />
    <tag k='kerb' v='lowered' />
    <tag k='tactile_paving' v='yes' />
  </node>
  <node id='-142136' action='modify' visible='true' lat='48.8557924' lon='2.347692' />
  <node id='-142137' action='modify' visible='true' lat='48.8557988' lon='2.3476901' />
  <node id='-142138' action='modify' visible='true' lat='48.8558089' lon='2.3476831' />
  <node id='-142139' action='modify' visible='true' lat='48.8558159' lon='2.3476685' />
  <node id='-142140' action='modify' visible='true' lat='48.8558599' lon='2.3475223' />
  <node id='-142141' action='modify' visible='true' lat='48.8558603' lon='2.3475072' />
  <node id='-142142' action='modify' visible='true' lat='48.8558585' lon='2.3474945' />
  <node id='-142143' action='modify' visible='true' lat='48.8558549' lon='2.3474853' />
  <node id='-142144' action='modify' visible='true' lat='48.8558498' lon='2.3474782'>
    <tag k='barrier' v='kerb' />
    <tag k='tactile_paving' v='yes' />
  </node>
  <node id='-142145' action='modify' visible='true' lat='48.8558438' lon='2.3474734' />
  <node id='-142146' action='modify' visible='true' lat='48.855242' lon='2.3470938' />
  <node id='-142147' action='modify' visible='true' lat='48.8552389' lon='2.3470906' />
  <node id='-142148' action='modify' visible='true' lat='48.8552311' lon='2.347106' />
  <node id='-142149' action='modify' visible='true' lat='48.8552389' lon='2.3471318' />
  <node id='-142150' action='modify' visible='true' lat='48.8552314' lon='2.3471593' />
  <node id='-142151' action='modify' visible='true' lat='48.8552237' lon='2.3471872' />
  <node id='-142152' action='modify' visible='true' lat='48.8552101' lon='2.347179' />
  <node id='-142153' action='modify' visible='true' lat='48.8557532' lon='2.3478442' />
  <node id='-142155' action='modify' visible='true' lat='48.8557086' lon='2.3479337' />
  <node id='-142156' action='modify' visible='true' lat='48.8557284' lon='2.34793' />
  <node id='-142157' action='modify' visible='true' lat='48.8557748' lon='2.3477696' />
  <node id='-142158' action='modify' visible='true' lat='48.855769' lon='2.3477419' />
  <node id='-142159' action='modify' visible='true' lat='48.8557768' lon='2.3477126'>
    <tag k='crossing' v='uncontrolled' />
    <tag k='crossing:island' v='no' />
    <tag k='crossing:markings' v='zebra' />
    <tag k='crossing_ref' v='zebra' />
    <tag k='highway' v='crossing' />
    <tag k='source' v='BD Ortho 2018' />
    <tag k='tactile_paving' v='yes' />
    <tag k='traffic_signals:sound' v='no' />
  </node>
  <node id='-142160' action='modify' visible='true' lat='48.855786' lon='2.347678' />
  <node id='-142161' action='modify' visible='true' lat='48.8558065' lon='2.3476641' />
  <node id='-142162' action='modify' visible='true' lat='48.8558342' lon='2.3475697' />
  <node id='-142163' action='modify' visible='true' lat='48.8558506' lon='2.3475136' />
  <node id='-142164' action='modify' visible='true' lat='48.8554265' lon='2.3476486'>
    <tag k='entrance' v='yes' />
  </node>
  <node id='-142165' action='modify' visible='true' lat='48.8556488' lon='2.3481788' />
  <node id='-142166' action='modify' visible='true' lat='48.8556683' lon='2.3481076' />
  <node id='-142167' action='modify' visible='true' lat='48.8556905' lon='2.3480266' />
  <node id='-142168' action='modify' visible='true' lat='48.8556909' lon='2.3480001' />
  <node id='-142169' action='modify' visible='true' lat='48.8556951' lon='2.3479833' />
  <node id='-142170' action='modify' visible='true' lat='48.8556289' lon='2.3481748' />
  <node id='-142171' action='modify' visible='true' lat='48.8556011' lon='2.3482811'>
    <tag k='button_operated' v='no' />
    <tag k='crossing' v='traffic_signals' />
    <tag k='crossing:markings' v='zebra' />
    <tag k='crossing_ref' v='zebra' />
    <tag k='highway' v='crossing' />
    <tag k='source' v='survey 12/2017' />
    <tag k='tactile_paving' v='yes' />
  </node>
  <node id='-142172' action='modify' visible='true' lat='48.8555799' lon='2.3483622' />
  <node id='-142173' action='modify' visible='true' lat='48.8557191' lon='2.3482259' />
  <node id='-142174' action='modify' visible='true' lat='48.8556983' lon='2.348212'>
    <tag k='button_operated' v='no' />
    <tag k='crossing' v='traffic_signals' />
    <tag k='crossing:markings' v='zebra' />
    <tag k='crossing_ref' v='zebra' />
    <tag k='highway' v='crossing' />
    <tag k='source' v='survey 12/2017' />
    <tag k='tactile_paving' v='yes' />
  </node>
  <node id='-142175' action='modify' visible='true' lat='48.8558749' lon='2.3473865'>
    <tag k='barrier' v='kerb' />
    <tag k='tactile_paving' v='yes' />
  </node>
  <node id='-142176' action='modify' visible='true' lat='48.8558623' lon='2.3474324'>
    <tag k='crossing' v='uncontrolled' />
    <tag k='crossing:island' v='no' />
    <tag k='crossing:markings' v='zebra' />
    <tag k='crossing_ref' v='zebra' />
    <tag k='highway' v='crossing' />
    <tag k='source' v='BD Ortho 2018' />
    <tag k='tactile_paving' v='yes' />
    <tag k='traffic_signals:sound' v='no' />
  </node>
  <node id='-142177' action='modify' visible='true' lat='48.8557943' lon='2.3475457'>
    <tag k='entrance' v='yes' />
  </node>
  <node id='-142179' action='modify' visible='true' lat='48.8555882' lon='2.3474169' />
  <node id='-142180' action='modify' visible='true' lat='48.8555732' lon='2.3474073'>
    <tag k='entrance' v='yes' />
  </node>
  <node id='-142181' action='modify' visible='true' lat='48.8552793' lon='2.3472249'>
    <tag k='entrance' v='yes' />
  </node>
  <node id='-142182' action='modify' visible='true' lat='48.8554933' lon='2.3462342' />
  <node id='-142183' action='modify' visible='true' lat='48.8552097' lon='2.3470681' />
  <node id='-142184' action='modify' visible='true' lat='48.8552034' lon='2.3470885' />
  <node id='-142185' action='modify' visible='true' lat='48.8552674' lon='2.3471287' />
  <node id='-142186' action='modify' visible='true' lat='48.8552549' lon='2.3471741' />
  <node id='-142187' action='modify' visible='true' lat='48.8552462' lon='2.3472055' />
  <node id='-142188' action='modify' visible='true' lat='48.8552314' lon='2.3471593' />
  <node id='-142189' action='modify' visible='true' lat='48.855375' lon='2.3476155'>
    <tag k='entrance' v='yes' />
  </node>
  <node id='-142190' action='modify' visible='true' lat='48.8551181' lon='2.3474585'>
    <tag k='entrance' v='yes' />
  </node>
  <node id='-142191' action='modify' visible='true' lat='48.8549149' lon='2.3468658' />
  <node id='-142192' action='modify' visible='true' lat='48.8548251' lon='2.34712'>
    <tag k='addr:housenumber' v='1' />
    <tag k='entrance' v='yes' />
    <tag k='source' v='OpenDataParis' />
  </node>
  <node id='-142193' action='modify' visible='true' lat='48.8547206' lon='2.3474196' />
  <node id='-142194' action='modify' visible='true' lat='48.8547234' lon='2.3474228' />
  <node id='-142195' action='modify' visible='true' lat='48.8546625' lon='2.3475999' />
  <node id='-142196' action='modify' visible='true' lat='48.8546501' lon='2.3476477' />
  <node id='-142197' action='modify' visible='true' lat='48.8547194' lon='2.347687' />
  <node id='-142198' action='modify' visible='true' lat='48.85497' lon='2.3475557' />
  <node id='-142199' action='modify' visible='true' lat='48.8549679' lon='2.3475505' />
  <node id='-142200' action='modify' visible='true' lat='48.8549677' lon='2.3475444' />
  <node id='-142201' action='modify' visible='true' lat='48.855067' lon='2.3472558' />
  <node id='-142202' action='modify' visible='true' lat='48.8550704' lon='2.3472524' />
  <node id='-142203' action='modify' visible='true' lat='48.8550749' lon='2.3472534' />
  <node id='-142204' action='modify' visible='true' lat='48.8551613' lon='2.3473059' />
  <node id='-142205' action='modify' visible='true' lat='48.855164' lon='2.3473059' />
  <node id='-142206' action='modify' visible='true' lat='48.855177' lon='2.347298' />
  <node id='-142207' action='modify' visible='true' lat='48.8551851' lon='2.3471621' />
  <node id='-142208' action='modify' visible='true' lat='48.8552003' lon='2.3471067' />
  <node id='-142209' action='modify' visible='true' lat='48.8552258' lon='2.3471225' />
  <node id='-142210' action='modify' visible='true' lat='48.855237' lon='2.3470866' />
  <node id='-142211' action='modify' visible='true' lat='48.8552374' lon='2.3470829' />
  <node id='-142212' action='modify' visible='true' lat='48.8552505' lon='2.3470453' />
  <node id='-142213' action='modify' visible='true' lat='48.8552746' lon='2.3469695' />
  <node id='-142214' action='modify' visible='true' lat='48.8552774' lon='2.3469617' />
  <node id='-142215' action='modify' visible='true' lat='48.8552792' lon='2.3469619' />
  <node id='-142216' action='modify' visible='true' lat='48.8553723' lon='2.3466905' />
  <node id='-142217' action='modify' visible='true' lat='48.8553659' lon='2.3466845' />
  <node id='-142218' action='modify' visible='true' lat='48.8555052' lon='2.346277' />
  <node id='-142219' action='modify' visible='true' lat='48.8555153' lon='2.3462476' />
  <node id='-142220' action='modify' visible='true' lat='48.8555415' lon='2.3461733' />
  <node id='-142221' action='modify' visible='true' lat='48.8554462' lon='2.3460983' />
  <node id='-142222' action='modify' visible='true' lat='48.8553291' lon='2.3460056' />
  <node id='-142223' action='modify' visible='true' lat='48.8553016' lon='2.3459833' />
  <node id='-142224' action='modify' visible='true' lat='48.8552626' lon='2.3459533' />
  <node id='-142225' action='modify' visible='true' lat='48.8552231' lon='2.3460523' />
  <node id='-142226' action='modify' visible='true' lat='48.8551584' lon='2.3462359' />
  <node id='-142227' action='modify' visible='true' lat='48.8551362' lon='2.3462181' />
  <node id='-142228' action='modify' visible='true' lat='48.8551349' lon='2.3462213' />
  <node id='-142229' action='modify' visible='true' lat='48.85513' lon='2.346236'>
    <tag k='addr:housenumber' v='3' />
    <tag k='entrance' v='yes' />
    <tag k='source' v='survey' />
  </node>
  <node id='-142230' action='modify' visible='true' lat='48.8550916' lon='2.3463502'>
    <tag k='entrance' v='yes' />
  </node>
  <node id='-142231' action='modify' visible='true' lat='48.8550471' lon='2.3464728' />
  <node id='-142232' action='modify' visible='true' lat='48.8550032' lon='2.3465976' />
  <node id='-142233' action='modify' visible='true' lat='48.8550072' lon='2.3466009' />
  <node id='-142234' action='modify' visible='true' lat='48.854952' lon='2.3467622' />
  <node id='-142235' action='modify' visible='true' lat='48.8549487' lon='2.3467604' />
  <node id='-142236' action='modify' visible='true' lat='48.85394626917' lon='2.33122138151' />
  <node id='-142237' action='modify' visible='true' lat='48.85389575234' lon='2.33117687398' />
  <node id='-142238' action='modify' visible='true' lat='48.85400923209' lon='2.33143501764' />
  <node id='-142239' action='modify' visible='true' lat='48.85388037765' lon='2.33168982323' />
  <node id='-142240' action='modify' visible='true' lat='48.85395578682' lon='2.33094209678' />
  <node id='-142241' action='modify' visible='true' lat='48.85394626917' lon='2.33114571871' />
  <node id='-142242' action='modify' visible='true' lat='48.85400483932' lon='2.33121915613' />
  <node id='-142243' action='modify' visible='true' lat='48.85393309088' lon='2.33143279226' />
  <node id='-142244' action='modify' visible='true' lat='48.85395578682' lon='2.33087311011' />
  <node id='-142245' action='modify' visible='true' lat='48.85400337507' lon='2.33114794409' />
  <node id='-142246' action='modify' visible='true' lat='48.85400403934' lon='2.33118025004' />
  <node id='-142247' action='modify' visible='true' lat='48.85393455513' lon='2.3313448899' />
  <node id='-142248' action='modify' visible='true' lat='48.85396750086' lon='2.33150845506' />
  <node id='-142249' action='modify' visible='true' lat='48.85400191081' lon='2.33087644817' />
  <node id='-142250' action='modify' visible='true' lat='48.85404510627' lon='2.3310622671' />
  <node id='-142251' action='modify' visible='true' lat='48.85403924926' lon='2.33118021205' />
  <node id='-142252' action='modify' visible='true' lat='48.85400923209' lon='2.33135045334' />
  <node id='-142253' action='modify' visible='true' lat='48.85392430534' lon='2.33159190667' />
  <node id='-142254' action='modify' visible='true' lat='48.85397262574' lon='2.33128035398' />
  <node id='-142255' action='modify' visible='true' lat='48.8540099642' lon='2.33167202022' />
  <node id='-142256' action='modify' visible='true' lat='48.85392430534' lon='2.33170317549' />
  <node id='-142257' action='modify' visible='true' lat='48.85395432257' lon='2.33109119699' />
  <node id='-142258' action='modify' visible='true' lat='48.85397341412' lon='2.33122035013' />
  <node id='-142259' action='modify' visible='true' lat='48.85393385032' lon='2.33138720127' />
  <node id='-142260' action='modify' visible='true' lat='48.8539689651' lon='2.33158077979' />
  <node id='-142261' action='modify' visible='true' lat='48.85395359043' lon='2.33103111183' />
  <node id='-142262' action='modify' visible='true' lat='48.85400119726' lon='2.33106128951' />
  <node id='-142263' action='modify' visible='true' lat='48.85388477043' lon='2.33138828473' />
  <node id='-142264' action='modify' visible='true' lat='48.85392430534' lon='2.33163752688' />
  <node id='-142265' action='modify' visible='true' lat='48.85400044657' lon='2.33103333721' />
  <node id='-142266' action='modify' visible='true' lat='48.85395395713' lon='2.33106120591' />
  <node id='-142267' action='modify' visible='true' lat='48.85397395942' lon='2.33134782552'>
    <tag k='amenity' v='toilets' />
  </node>
  <node id='-142268' action='modify' visible='true' lat='48.85405608816' lon='2.33171430237' />
  <node id='-142269' action='modify' visible='true' lat='48.85400264294' lon='2.33094543484' />
  <node id='-142270' action='modify' visible='true' lat='48.85390966278' lon='2.33106004172' />
  <node id='-142271' action='modify' visible='true' lat='48.85397408999' lon='2.33117687398' />
  <node id='-142272' action='modify' visible='true' lat='48.85401136489' lon='2.33163849214' />
  <node id='-142273' action='modify' visible='true' lat='48.85396676873' lon='2.33155073721' />
  <node id='-142274' action='modify' visible='true' lat='48.85400191081' lon='2.33108785893' />
  <node id='-142275' action='modify' visible='true' lat='48.85394626917' lon='2.33117687398' />
  <node id='-142276' action='modify' visible='true' lat='48.85401289271' lon='2.33160192086' />
  <node id='-142277' action='modify' visible='true' lat='48.85396969723' lon='2.33167869635' />
  <node id='-142278' action='modify' visible='true' lat='48.8539860785' lon='2.33089786678' />
  <node id='-142279' action='modify' visible='true' lat='48.85396967947' lon='2.33089713375' />
  <node id='-142280' action='modify' visible='true' lat='48.85396967947' lon='2.33091985791' />
  <node id='-142281' action='modify' visible='true' lat='48.85398559617' lon='2.33091912487' />
  <node id='-142282' action='modify' visible='true' lat='48.85398270199' lon='2.33105876886' />
  <node id='-142283' action='modify' visible='true' lat='48.85397257317' lon='2.33104960589' />
  <node id='-142284' action='modify' visible='true' lat='48.85397353782' lon='2.33106719879' />
  <node id='-142285' action='modify' visible='true' lat='48.85399946263' lon='2.33123634735' />
  <node id='-142286' action='modify' visible='true' lat='48.85398921324' lon='2.33123634735' />
  <node id='-142287' action='modify' visible='true' lat='48.8539894544' lon='2.33125174114' />
  <node id='-142288' action='modify' visible='true' lat='48.85399958321' lon='2.3312510081' />
  <node id='-142289' action='modify' visible='true' lat='48.85399476009' lon='2.33137177583' />
  <node id='-142290' action='modify' visible='true' lat='48.85398077269' lon='2.33136774412' />
  <node id='-142291' action='modify' visible='true' lat='48.85397980804' lon='2.33141502503' />
  <node id='-142292' action='modify' visible='true' lat='48.85395062742' lon='2.33140622858' />
  <node id='-142293' action='modify' visible='true' lat='48.85394942161' lon='2.33142088933' />
  <node id='-142294' action='modify' visible='true' lat='48.85399476009' lon='2.33142895274' />
  <node id='-142295' action='modify' visible='true' lat='48.85395545066' lon='2.33136444545' />
  <node id='-142296' action='modify' visible='true' lat='48.85394483953' lon='2.3313615133' />
  <node id='-142297' action='modify' visible='true' lat='48.85394339255' lon='2.33137544101' />
  <node id='-142298' action='modify' visible='true' lat='48.8539552095' lon='2.33137617405' />
  <node id='-142299' action='modify' visible='true' lat='48.8541229888' lon='2.33178331251' />
  <node id='-142300' action='modify' visible='true' lat='48.85410378125' lon='2.33178322432' />
  <node id='-142301' action='modify' visible='true' lat='48.85410340974' lon='2.33197011453' />
  <node id='-142302' action='modify' visible='true' lat='48.85421970758' lon='2.33197064852' />
  <node id='-142303' action='modify' visible='true' lat='48.85421976797' lon='2.33194026988' />
  <node id='-142304' action='modify' visible='true' lat='48.85412267768' lon='2.33193982408' />
  <node id='-142305' action='modify' visible='true' lat='48.85412284868' lon='2.33185380039' />
  <node id='-142306' action='modify' visible='true' lat='48.85417525266' lon='2.33185343596' />
  <node id='-142307' action='modify' visible='true' lat='48.85417572991' lon='2.33194006767' />
  <node id='-142308' action='modify' visible='true' lat='48.8541757349' lon='2.33197044662' />
  <node id='-142309' action='modify' visible='true' lat='48.85417573358' lon='2.33201167685' />
  <node id='-142310' action='modify' visible='true' lat='48.8539859648' lon='2.33193954152' />
  <node id='-142311' action='modify' visible='true' lat='48.85398548755' lon='2.33185290981' />
  <node id='-142312' action='modify' visible='true' lat='48.85393291236' lon='2.33193929793' />
  <node id='-142313' action='modify' visible='true' lat='48.85403000302' lon='2.33193974372' />
  <node id='-142314' action='modify' visible='true' lat='48.85391401586' lon='2.33178269817' />
  <node id='-142315' action='modify' visible='true' lat='48.85393322349' lon='2.33178278636' />
  <node id='-142316' action='modify' visible='true' lat='48.85402994263' lon='2.33197012237' />
  <node id='-142317' action='modify' visible='true' lat='48.85393308337' lon='2.33185327423' />
  <node id='-142318' action='modify' visible='true' lat='48.85398596847' lon='2.3320111507' />
  <node id='-142319' action='modify' visible='true' lat='48.85391364435' lon='2.33196958838' />
  <node id='-142320' action='modify' visible='true' lat='48.85398596979' lon='2.33196992046' />
  <node id='-142321' action='modify' visible='true' lat='48.85414013352' lon='2.33245005294' />
  <node id='-142322' action='modify' visible='true' lat='48.8541069505' lon='2.33244927979' />
  <node id='-142323' action='modify' visible='true' lat='48.85410598577' lon='2.33254491914' />
  <node id='-142324' action='modify' visible='true' lat='48.8541391688' lon='2.33254569229' />
  <node id='-142325' action='modify' visible='true' lat='48.85408274088' lon='2.33244871573' />
  <node id='-142326' action='modify' visible='true' lat='48.85408350689' lon='2.33237277598' />
  <node id='-142327' action='modify' visible='true' lat='48.85421231652' lon='2.33237577715' />
  <node id='-142328' action='modify' visible='true' lat='48.85420833584' lon='2.33277040862' />
  <node id='-142329' action='modify' visible='true' lat='48.85411422705' lon='2.33276821594' />
  <node id='-142330' action='modify' visible='true' lat='48.854116477' lon='2.33254516358' />
  <node id='-142331' action='modify' visible='true' lat='48.85412471417' lon='2.33244969368'>
    <tag k='entrance' v='yes' />
  </node>
  <node id='-142332' action='modify' visible='true' lat='48.8541627526' lon='2.33276934656'>
    <tag k='entrance' v='yes' />
  </node>
  <node id='-142333' action='modify' visible='true' lat='48.85397352895' lon='2.33245041081' />
  <node id='-142334' action='modify' visible='true' lat='48.85397256423' lon='2.33254605016' />
  <node id='-142335' action='modify' visible='true' lat='48.85394987235' lon='2.33254552146' />
  <node id='-142336' action='modify' visible='true' lat='48.85393938109' lon='2.33254527702' />
  <node id='-142337' action='modify' visible='true' lat='48.85394034582' lon='2.33244963767' />
  <node id='-142338' action='modify' visible='true' lat='48.85395810955' lon='2.33245005155'>
    <tag k='entrance' v='yes' />
  </node>
  <node id='-142339' action='modify' visible='true' lat='48.85391613612' lon='2.33244907361' />
  <node id='-142340' action='modify' visible='true' lat='48.85391690213' lon='2.33237313386' />
  <node id='-142341' action='modify' visible='true' lat='48.85404571219' lon='2.33237613503' />
  <node id='-142342' action='modify' visible='true' lat='48.8540417315' lon='2.33277076649' />
  <node id='-142343' action='modify' visible='true' lat='48.8539961481' lon='2.33276970443'>
    <tag k='entrance' v='yes' />
  </node>
  <node id='-142344' action='modify' visible='true' lat='48.85394762239' lon='2.33276857382' />
  <node id='-142345' action='modify' visible='true' lat='48.85401417733' lon='2.33244101598' />
  <node id='-142346' action='modify' visible='true' lat='48.85399397633' lon='2.33244049309' />
  <node id='-142347' action='modify' visible='true' lat='48.85399095394' lon='2.33271019341' />
  <node id='-142348' action='modify' visible='true' lat='48.85401115494' lon='2.33271071631' />
  <node id='-142349' action='modify' visible='true' lat='48.85412031525' lon='2.33205303742' />
  <node id='-142350' action='modify' visible='true' lat='48.85410110769' lon='2.33205294923' />
  <node id='-142351' action='modify' visible='true' lat='48.85410073618' lon='2.33223983944' />
  <node id='-142352' action='modify' visible='true' lat='48.85417306135' lon='2.33224017153' />
  <node id='-142353' action='modify' visible='true' lat='48.85421703403' lon='2.33224037343' />
  <node id='-142354' action='modify' visible='true' lat='48.85421709442' lon='2.33220999479' />
  <node id='-142355' action='modify' visible='true' lat='48.85417305636' lon='2.33220979258' />
  <node id='-142356' action='modify' visible='true' lat='48.85412000413' lon='2.33220954899' />
  <node id='-142357' action='modify' visible='true' lat='48.85412017513' lon='2.3321235253' />
  <node id='-142358' action='modify' visible='true' lat='48.85417257911' lon='2.33212316087' />
  <node id='-142359' action='modify' visible='true' lat='48.85417306003' lon='2.33228140176' />
  <node id='-142360' action='modify' visible='true' lat='48.8539325534' lon='2.33211651346' />
  <node id='-142361' action='modify' visible='true' lat='48.85398495758' lon='2.33211614903' />
  <node id='-142362' action='modify' visible='true' lat='48.85398543483' lon='2.33220278074' />
  <node id='-142363' action='modify' visible='true' lat='48.85398543983' lon='2.33223315968' />
  <node id='-142364' action='modify' visible='true' lat='48.8539854385' lon='2.33227438992' />
  <node id='-142365' action='modify' visible='true' lat='48.85393269352' lon='2.33204602558' />
  <node id='-142366' action='modify' visible='true' lat='48.8539134859' lon='2.33204593739' />
  <node id='-142367' action='modify' visible='true' lat='48.85391311438' lon='2.3322328276' />
  <node id='-142368' action='modify' visible='true' lat='48.85402941267' lon='2.33223336159' />
  <node id='-142369' action='modify' visible='true' lat='48.85402947306' lon='2.33220298295' />
  <node id='-142370' action='modify' visible='true' lat='48.8539323824' lon='2.33220253715' />
  <node id='-142371' action='modify' visible='true' lat='48.85410087286' lon='2.33217108456'>
    <tag k='entrance' v='main' />
  </node>
  <node id='-142372' action='modify' visible='true' lat='48.85391322784' lon='2.33217575195'>
    <tag k='entrance' v='main' />
  </node>
  <way id='-113274' action='modify' visible='true'>
    <nd ref='-141839' />
    <nd ref='-141840' />
    <nd ref='-141841' />
    <nd ref='-141842' />
    <nd ref='-141839' />
    <tag k='area' v='yes' />
    <tag k='highway' v='pedestrian' />
    <tag k='name' v='Forever Alone Plaza' />
  </way>
  <way id='-113275' action='modify' visible='true'>
    <nd ref='-141843' />
    <nd ref='-141844' />
    <nd ref='-141848' />
    <nd ref='-141845' />
    <nd ref='-141846' />
    <nd ref='-141849' />
    <nd ref='-141843' />
    <tag k='area' v='yes' />
    <tag k='highway' v='pedestrian' />
    <tag k='name' v='I/O Street' />
  </way>
  <way id='-113276' action='modify' visible='true'>
    <nd ref='-141847' />
    <nd ref='-141848' />
    <tag k='highway' v='footway' />
  </way>
  <way id='-113277' action='modify' visible='true'>
    <nd ref='-141849' />
    <nd ref='-141850' />
    <tag k='highway' v='footway' />
  </way>
  <way id='-113278' action='modify' visible='true'>
    <nd ref='-141851' />
    <nd ref='-141852' />
    <nd ref='-141856' />
    <nd ref='-141853' />
    <nd ref='-141858' />
    <nd ref='-141854' />
    <nd ref='-141861' />
    <nd ref='-141851' />
    <tag k='area' v='yes' />
    <tag k='highway' v='pedestrian' />
    <tag k='name' v='Forget Centroid Causeway' />
  </way>
  <way id='-113279' action='modify' visible='true'>
    <nd ref='-141855' />
    <nd ref='-141856' />
    <nd ref='-141857' />
    <nd ref='-141858' />
    <nd ref='-141859' />
    <tag k='highway' v='footway' />
  </way>
  <way id='-113280' action='modify' visible='true'>
    <nd ref='-141860' />
    <nd ref='-141861' />
    <nd ref='-141857' />
    <tag k='highway' v='footway' />
  </way>
  <way id='-113281' action='modify' visible='true'>
    <nd ref='-141862' />
    <nd ref='-141866' />
    <nd ref='-141863' />
    <nd ref='-141868' />
    <nd ref='-141864' />
    <nd ref='-141865' />
    <nd ref='-141862' />
    <tag k='area' v='yes' />
    <tag k='highway' v='pedestrian' />
    <tag k='name' v='Place du Pipi' />
  </way>
  <way id='-113282' action='modify' visible='true'>
    <nd ref='-141867' />
    <nd ref='-141868' />
    <tag k='highway' v='footway' />
  </way>
  <way id='-113283' action='modify' visible='true'>
    <nd ref='-141869' />
    <nd ref='-141870' />
    <nd ref='-141871' />
    <nd ref='-141877' />
    <nd ref='-141872' />
    <nd ref='-141873' />
    <nd ref='-141874' />
    <nd ref='-141875' />
    <nd ref='-141869' />
    <tag k='area' v='yes' />
    <tag k='highway' v='pedestrian' />
    <tag k='name' v='Distorded District' />
  </way>
  <way id='-113284' action='modify' visible='true'>
    <nd ref='-141875' />
    <nd ref='-141876' />
    <tag k='highway' v='footway' />
  </way>
  <way id='-113285' action='modify' visible='true'>
    <nd ref='-141870' />
    <nd ref='-141880' />
    <nd ref='-141877' />
    <tag k='highway' v='footway' />
  </way>
  <way id='-113286' action='modify' visible='true'>
    <nd ref='-141870' />
    <nd ref='-141879' />
    <tag k='highway' v='footway' />
  </way>
  <way id='-113287' action='modify' visible='true'>
    <nd ref='-141877' />
    <nd ref='-141878' />
    <tag k='highway' v='footway' />
  </way>
  <way id='-113288' action='modify' visible='true'>
    <nd ref='-141881' />
    <nd ref='-141882' />
    <nd ref='-141883' />
    <tag k='crossing' v='traffic_signals' />
    <tag k='footway' v='crossing' />
    <tag k='highway' v='footway' />
    <tag k='lit' v='yes' />
    <tag k='surface' v='asphalt' />
    <tag k='traffic_signals:sound' v='yes' />
  </way>
  <way id='-113289' action='modify' visible='true'>
    <nd ref='-141884' />
    <nd ref='-141885' />
    <nd ref='-141886' />
    <nd ref='-141887' />
    <nd ref='-141888' />
    <nd ref='-141889' />
    <nd ref='-141890' />
    <nd ref='-141891' />
    <nd ref='-141892' />
    <nd ref='-141893' />
    <nd ref='-141894' />
    <nd ref='-141895' />
    <nd ref='-141896' />
    <nd ref='-141897' />
    <nd ref='-141898' />
    <nd ref='-141899' />
    <nd ref='-141900' />
    <nd ref='-141901' />
    <nd ref='-141902' />
    <nd ref='-141903' />
    <nd ref='-141904' />
    <nd ref='-141905' />
    <nd ref='-141906' />
    <nd ref='-141907' />
    <nd ref='-141908' />
    <nd ref='-141909' />
    <nd ref='-141910' />
    <nd ref='-141911' />
    <nd ref='-141912' />
    <nd ref='-141913' />
    <nd ref='-141914' />
    <nd ref='-141915' />
    <nd ref='-141916' />
    <nd ref='-141917' />
    <nd ref='-141918' />
    <nd ref='-141919' />
    <nd ref='-141920' />
    <nd ref='-141921' />
    <nd ref='-141922' />
    <nd ref='-141923' />
    <nd ref='-141924' />
    <nd ref='-141925' />
    <nd ref='-141926' />
    <nd ref='-141927' />
    <nd ref='-141928' />
    <nd ref='-141929' />
    <nd ref='-141930' />
    <nd ref='-141931' />
    <nd ref='-141932' />
    <nd ref='-141933' />
    <nd ref='-141934' />
    <nd ref='-141935' />
    <nd ref='-141936' />
    <nd ref='-141937' />
    <nd ref='-141938' />
    <nd ref='-141939' />
    <nd ref='-141940' />
    <nd ref='-141941' />
    <nd ref='-141942' />
    <nd ref='-141943' />
    <nd ref='-141944' />
    <nd ref='-141945' />
    <nd ref='-141946' />
    <nd ref='-141947' />
    <nd ref='-141881' />
    <nd ref='-141884' />
    <tag k='area' v='yes' />
    <tag k='highway' v='pedestrian' />
    <tag k='source' v='cadastre-dgi-fr source : Direction Générale des Impôts - Cadastre ; mise à jour : 2018' />
  </way>
  <way id='-113290' action='modify' visible='true'>
    <nd ref='-141948' />
    <nd ref='-141949' />
    <nd ref='-141950' />
    <nd ref='-141885' />
    <nd ref='-141951' />
    <nd ref='-141952' />
    <nd ref='-141881' />
    <tag k='footway' v='sidewalk' />
    <tag k='highway' v='footway' />
  </way>
  <way id='-113291' action='modify' visible='true'>
    <nd ref='-141953' />
    <nd ref='-141954' />
    <nd ref='-141952' />
    <tag k='footway' v='sidewalk' />
    <tag k='highway' v='footway' />
  </way>
  <way id='-113292' action='modify' visible='true'>
    <nd ref='-141886' />
    <nd ref='-141955' />
    <nd ref='-141956' />
    <nd ref='-141957' />
    <nd ref='-141958' />
    <nd ref='-141959' />
    <nd ref='-141960' />
    <nd ref='-141961' />
    <nd ref='-141962' />
    <nd ref='-141963' />
    <nd ref='-141964' />
    <nd ref='-141965' />
    <nd ref='-141966' />
    <nd ref='-141967' />
    <nd ref='-141968' />
    <nd ref='-141969' />
    <nd ref='-141970' />
    <nd ref='-141971' />
    <nd ref='-141972' />
    <nd ref='-141973' />
    <nd ref='-141974' />
    <nd ref='-141975' />
    <nd ref='-141976' />
    <nd ref='-141977' />
    <nd ref='-141978' />
    <nd ref='-141979' />
    <nd ref='-141980' />
    <nd ref='-141981' />
    <nd ref='-141982' />
    <nd ref='-141948' />
    <nd ref='-141983' />
    <nd ref='-141984' />
    <nd ref='-141985' />
    <nd ref='-141986' />
    <nd ref='-141987' />
    <nd ref='-141884' />
    <nd ref='-141885' />
    <nd ref='-141886' />
    <tag k='area' v='yes' />
    <tag k='highway' v='pedestrian' />
    <tag k='name' v='Place Saint-Germain des Prés' />
    <tag k='name:etymology:wikidata' v='Q334186' />
    <tag k='source' v='cadastre-dgi-fr source : Direction Générale des Impôts - Cadastre ; mise à jour : 2018' />
    <tag k='surface' v='sett' />
  </way>
  <way id='-113293' action='modify' visible='true'>
    <nd ref='-141949' />
    <nd ref='-141981' />
    <nd ref='-141988' />
    <nd ref='-141989' />
    <tag k='footway' v='sidewalk' />
    <tag k='highway' v='footway' />
    <tag k='surface' v='sett' />
  </way>
  <way id='-113294' action='modify' visible='true'>
    <nd ref='-141982' />
    <nd ref='-141981' />
    <nd ref='-141980' />
    <nd ref='-141990' />
    <nd ref='-141991' />
    <nd ref='-141924' />
    <nd ref='-141925' />
    <nd ref='-141926' />
    <nd ref='-141992' />
    <nd ref='-141993' />
    <nd ref='-141994' />
    <nd ref='-141995' />
    <nd ref='-141996' />
    <nd ref='-141989' />
    <nd ref='-141997' />
    <nd ref='-141982' />
    <tag k='area' v='yes' />
    <tag k='highway' v='pedestrian' />
    <tag k='name' v='Place Juliette Gréco' />
    <tag k='name:etymology:wikidata' v='Q156485' />
    <tag k='surface' v='sett' />
  </way>
  <way id='-113295' action='modify' visible='true'>
    <nd ref='-141988' />
    <nd ref='-141998' />
    <nd ref='-141994' />
    <tag k='footway' v='sidewalk' />
    <tag k='highway' v='footway' />
    <tag k='lit' v='yes' />
    <tag k='surface' v='sett' />
  </way>
  <way id='-113296' action='modify' visible='true'>
    <nd ref='-141998' />
    <nd ref='-141999' />
    <nd ref='-141925' />
    <nd ref='-142000' />
    <nd ref='-142001' />
    <nd ref='-141930' />
    <tag k='footway' v='sidewalk' />
    <tag k='highway' v='footway' />
  </way>
  <way id='-113297' action='modify' visible='true'>
    <nd ref='-142001' />
    <nd ref='-142002' />
    <nd ref='-141932' />
    <tag k='footway' v='sidewalk' />
    <tag k='highway' v='footway' />
  </way>
  <way id='-113298' action='modify' visible='true'>
    <nd ref='-142002' />
    <nd ref='-142003' />
    <nd ref='-141937' />
    <tag k='footway' v='sidewalk' />
    <tag k='highway' v='footway' />
  </way>
  <way id='-113299' action='modify' visible='true'>
    <nd ref='-142003' />
    <nd ref='-142004' />
    <nd ref='-142005' />
    <nd ref='-141953' />
    <nd ref='-141938' />
    <tag k='footway' v='sidewalk' />
    <tag k='highway' v='footway' />
  </way>
  <way id='-113300' action='modify' visible='true'>
    <nd ref='-142006' />
    <nd ref='-141919' />
    <tag k='access' v='permissive' />
    <tag k='highway' v='footway' />
    <tag k='source' v='survey 06/2018' />
  </way>
  <way id='-113301' action='modify' visible='true'>
    <nd ref='-141894' />
    <nd ref='-142007' />
    <nd ref='-142008' />
    <nd ref='-142009' />
    <nd ref='-142010' />
    <nd ref='-142011' />
    <nd ref='-142012' />
    <nd ref='-142013' />
    <nd ref='-142014' />
    <nd ref='-142015' />
    <nd ref='-142016' />
    <nd ref='-142017' />
    <nd ref='-142018' />
    <nd ref='-142019' />
    <nd ref='-142020' />
    <nd ref='-142021' />
    <nd ref='-142008' />
    <tag k='highway' v='footway' />
    <tag k='surface' v='compacted' />
  </way>
  <way id='-113302' action='modify' visible='true'>
    <nd ref='-141894' />
    <nd ref='-141954' />
    <tag k='highway' v='footway' />
  </way>
  <way id='-113303' action='modify' visible='true'>
    <nd ref='-142022' />
    <nd ref='-142023' />
    <nd ref='-141938' />
    <tag k='crossing' v='uncontrolled' />
    <tag k='crossing:markings' v='yes' />
    <tag k='footway' v='crossing' />
    <tag k='highway' v='footway' />
    <tag k='lit' v='yes' />
    <tag k='surface' v='asphalt' />
  </way>
  <way id='-113304' action='modify' visible='true'>
    <nd ref='-142024' />
    <nd ref='-142025' />
    <nd ref='-142189' />
    <nd ref='-142026' />
    <nd ref='-142027' />
    <nd ref='-142028' />
    <nd ref='-142029' />
    <nd ref='-142190' />
    <nd ref='-142030' />
    <nd ref='-142031' />
    <nd ref='-142024' />
    <tag k='building' v='retail' />
    <tag k='building:facade:colour' v='#0B4D3A' />
    <tag k='building:levels' v='1' />
    <tag k='height' v='4' />
    <tag k='roof:height' v='1.5' />
    <tag k='roof:levels' v='0' />
    <tag k='roof:material' v='metal' />
    <tag k='roof:shape' v='gabled' />
    <tag k='source' v='cadastre-dgi-fr source : Direction Générale des Impôts - Cadastre ; mise à jour : 2010' />
  </way>
  <way id='-113305' action='modify' visible='true'>
    <nd ref='-142032' />
    <nd ref='-142033' />
    <nd ref='-142034' />
    <nd ref='-142035' />
    <nd ref='-142036' />
    <nd ref='-142037' />
    <nd ref='-142038' />
    <nd ref='-142164' />
    <nd ref='-142039' />
    <nd ref='-142040' />
    <nd ref='-142032' />
    <tag k='building' v='retail' />
    <tag k='building:facade:colour' v='#0B4D3A' />
    <tag k='building:levels' v='1' />
    <tag k='height' v='4' />
    <tag k='roof:height' v='1.5' />
    <tag k='roof:levels' v='0' />
    <tag k='roof:material' v='metal' />
    <tag k='roof:shape' v='gabled' />
    <tag k='source' v='cadastre-dgi-fr source : Direction Générale des Impôts - Cadastre ; mise à jour : 2010' />
  </way>
  <way id='-113306' action='modify' visible='true'>
    <nd ref='-142041' />
    <nd ref='-142042' />
    <nd ref='-142043' />
    <nd ref='-142044' />
    <nd ref='-142045' />
    <nd ref='-142046' />
    <nd ref='-142047' />
    <nd ref='-142048' />
    <nd ref='-142049' />
    <nd ref='-142050' />
    <nd ref='-142051' />
    <nd ref='-142052' />
    <nd ref='-142053' />
    <nd ref='-142054' />
    <nd ref='-142055' />
    <nd ref='-142056' />
    <nd ref='-142057' />
    <nd ref='-142058' />
    <nd ref='-142059' />
    <nd ref='-142060' />
    <nd ref='-142061' />
    <nd ref='-142062' />
    <nd ref='-142063' />
    <nd ref='-142064' />
    <nd ref='-142065' />
    <nd ref='-142066' />
    <nd ref='-142067' />
    <nd ref='-142068' />
    <nd ref='-142069' />
    <nd ref='-142070' />
    <nd ref='-142041' />
  </way>
  <way id='-113307' action='modify' visible='true'>
    <nd ref='-142071' />
    <nd ref='-142072' />
    <nd ref='-142181' />
    <nd ref='-142073' />
    <nd ref='-142074' />
    <nd ref='-142075' />
    <nd ref='-142076' />
    <nd ref='-142180' />
    <nd ref='-142077' />
    <nd ref='-142078' />
    <nd ref='-142071' />
    <tag k='building' v='retail' />
    <tag k='building:facade:colour' v='#0B4D3A' />
    <tag k='building:levels' v='1' />
    <tag k='height' v='4' />
    <tag k='roof:height' v='1.5' />
    <tag k='roof:levels' v='0' />
    <tag k='roof:material' v='metal' />
    <tag k='roof:shape' v='gabled' />
    <tag k='source' v='cadastre-dgi-fr source : Direction Générale des Impôts - Cadastre ; mise à jour : 2010' />
  </way>
  <way id='-113308' action='modify' visible='true'>
    <nd ref='-142079' />
    <nd ref='-142080' />
    <nd ref='-142177' />
    <nd ref='-142082' />
    <nd ref='-142083' />
    <nd ref='-142084' />
    <nd ref='-142085' />
    <nd ref='-142086' />
    <nd ref='-142087' />
    <nd ref='-142088' />
    <nd ref='-142079' />
    <tag k='building' v='retail' />
    <tag k='building:facade:colour' v='#0B4D3A' />
    <tag k='building:levels' v='1' />
    <tag k='height' v='4' />
    <tag k='roof:height' v='1.5' />
    <tag k='roof:levels' v='0' />
    <tag k='roof:material' v='metal' />
    <tag k='roof:shape' v='gabled' />
    <tag k='source' v='cadastre-dgi-fr source : Direction Générale des Impôts - Cadastre ; mise à jour : 2010' />
  </way>
  <way id='-113309' action='modify' visible='true'>
    <nd ref='-142089' />
    <nd ref='-142090' />
    <nd ref='-142091' />
    <nd ref='-142092' />
    <nd ref='-142093' />
    <nd ref='-142094' />
    <nd ref='-142095' />
    <nd ref='-142096' />
    <nd ref='-142097' />
    <nd ref='-142098' />
    <nd ref='-142089' />
    <tag k='building' v='retail' />
    <tag k='building:facade:colour' v='#0B4D3A' />
    <tag k='building:levels' v='1' />
    <tag k='height' v='4' />
    <tag k='roof:height' v='1.5' />
    <tag k='roof:levels' v='0' />
    <tag k='roof:material' v='metal' />
    <tag k='roof:shape' v='gabled' />
    <tag k='source' v='cadastre-dgi-fr source : Direction Générale des Impôts - Cadastre ; mise à jour : 2010' />
  </way>
  <way id='-113310' action='modify' visible='true'>
    <nd ref='-142099' />
    <nd ref='-142100' />
    <nd ref='-142101' />
    <nd ref='-142102' />
    <nd ref='-142103' />
    <nd ref='-142104' />
    <nd ref='-142105' />
    <nd ref='-142106' />
    <nd ref='-142107' />
    <nd ref='-142108' />
    <nd ref='-142099' />
    <tag k='building' v='retail' />
    <tag k='building:facade:colour' v='#0B4D3A' />
    <tag k='building:levels' v='1' />
    <tag k='height' v='4' />
    <tag k='roof:height' v='1.5' />
    <tag k='roof:levels' v='0' />
    <tag k='roof:material' v='metal' />
    <tag k='roof:shape' v='gabled' />
    <tag k='source' v='cadastre-dgi-fr source : Direction Générale des Impôts - Cadastre ; mise à jour : 2010' />
  </way>
  <way id='-113311' action='modify' visible='true'>
    <nd ref='-142109' />
    <nd ref='-142110' />
    <nd ref='-142111' />
    <nd ref='-142112' />
    <nd ref='-142113' />
    <nd ref='-142114' />
    <nd ref='-142115' />
    <nd ref='-142116' />
    <nd ref='-142117' />
    <nd ref='-142118' />
    <nd ref='-142119' />
    <nd ref='-142120' />
    <nd ref='-142121' />
    <nd ref='-142122' />
    <nd ref='-142123' />
    <nd ref='-142169' />
    <nd ref='-142124' />
    <nd ref='-142125' />
    <nd ref='-142126' />
    <nd ref='-142127' />
    <nd ref='-142128' />
    <nd ref='-142129' />
    <nd ref='-142109' />
  </way>
  <way id='-113312' action='modify' visible='true'>
    <nd ref='-142206' />
    <nd ref='-142130' />
    <nd ref='-142131' />
    <nd ref='-142132' />
    <nd ref='-142133' />
    <nd ref='-142134' />
    <nd ref='-142135' />
    <nd ref='-142136' />
    <nd ref='-142137' />
    <nd ref='-142138' />
    <nd ref='-142139' />
    <nd ref='-142140' />
    <nd ref='-142141' />
    <nd ref='-142142' />
    <nd ref='-142143' />
    <nd ref='-142144' />
    <nd ref='-142145' />
    <nd ref='-142146' />
    <nd ref='-142147' />
    <nd ref='-142210' />
    <nd ref='-142148' />
    <nd ref='-142209' />
    <nd ref='-142149' />
    <nd ref='-142150' />
    <nd ref='-142151' />
    <nd ref='-142152' />
    <nd ref='-142206' />
  </way>
  <way id='-113313' action='modify' visible='true'>
    <nd ref='-142153' />
    <nd ref='-142034' />
    <tag k='footway' v='sidewalk' />
    <tag k='highway' v='footway' />
    <tag k='surface' v='asphalt' />
  </way>
  <way id='-113314' action='modify' visible='true'>
    <nd ref='-142050' />
    <nd ref='-142155' />
    <nd ref='-142156' />
    <nd ref='-142153' />
    <nd ref='-142157' />
    <nd ref='-142158' />
    <nd ref='-142062' />
    <tag k='footway' v='sidewalk' />
    <tag k='highway' v='footway' />
    <tag k='lit' v='yes' />
    <tag k='surface' v='asphalt' />
  </way>
  <way id='-113315' action='modify' visible='true'>
    <nd ref='-142135' />
    <nd ref='-142159' />
    <nd ref='-142062' />
    <tag k='footway' v='crossing' />
    <tag k='highway' v='footway' />
    <tag k='lit' v='yes' />
    <tag k='surface' v='asphalt' />
  </way>
  <way id='-113316' action='modify' visible='true'>
    <nd ref='-142135' />
    <nd ref='-142160' />
    <nd ref='-142161' />
    <nd ref='-142162' />
    <nd ref='-142163' />
    <nd ref='-142144' />
    <tag k='footway' v='sidewalk' />
    <tag k='highway' v='footway' />
    <tag k='lit' v='yes' />
    <tag k='surface' v='asphalt' />
  </way>
  <way id='-113317' action='modify' visible='true'>
    <nd ref='-142034' />
    <nd ref='-142164' />
    <tag k='highway' v='footway' />
    <tag k='indoor' v='yes' />
  </way>
  <way id='-113318' action='modify' visible='true'>
    <nd ref='-142102' />
    <nd ref='-142107' />
    <tag k='highway' v='footway' />
    <tag k='indoor' v='yes' />
  </way>
  <way id='-113319' action='modify' visible='true'>
    <nd ref='-142165' />
    <nd ref='-142166' />
    <nd ref='-142167' />
    <nd ref='-142168' />
    <nd ref='-142169' />
    <tag k='footway' v='sidewalk' />
    <tag k='highway' v='footway' />
    <tag k='lit' v='yes' />
    <tag k='surface' v='asphalt' />
  </way>
  <way id='-113320' action='modify' visible='true'>
    <nd ref='-142166' />
    <nd ref='-142107' />
    <tag k='footway' v='sidewalk' />
    <tag k='highway' v='footway' />
    <tag k='surface' v='asphalt' />
  </way>
  <way id='-113321' action='modify' visible='true'>
    <nd ref='-142119' />
    <nd ref='-142165' />
    <nd ref='-142170' />
    <nd ref='-142110' />
    <tag k='footway' v='sidewalk' />
    <tag k='highway' v='footway' />
    <tag k='lit' v='yes' />
    <tag k='surface' v='asphalt' />
  </way>
  <way id='-113322' action='modify' visible='true'>
    <nd ref='-142110' />
    <nd ref='-142171' />
    <nd ref='-142172' />
    <tag k='crossing' v='traffic_signals' />
    <tag k='crossing:markings' v='yes' />
    <tag k='footway' v='crossing' />
    <tag k='highway' v='footway' />
    <tag k='lit' v='yes' />
    <tag k='surface' v='asphalt' />
    <tag k='traffic_signals:sound' v='yes' />
  </way>
  <way id='-113323' action='modify' visible='true'>
    <nd ref='-142173' />
    <nd ref='-142174' />
    <nd ref='-142119' />
    <tag k='crossing' v='traffic_signals' />
    <tag k='crossing:markings' v='yes' />
    <tag k='footway' v='crossing' />
    <tag k='highway' v='footway' />
    <tag k='lit' v='yes' />
    <tag k='surface' v='asphalt' />
    <tag k='traffic_signals:sound' v='yes' />
  </way>
  <way id='-113324' action='modify' visible='true'>
    <nd ref='-142175' />
    <nd ref='-142176' />
    <nd ref='-142144' />
    <tag k='footway' v='crossing' />
    <tag k='highway' v='footway' />
    <tag k='lit' v='yes' />
  </way>
  <way id='-113325' action='modify' visible='true'>
    <nd ref='-142162' />
    <nd ref='-142177' />
    <tag k='footway' v='sidewalk' />
    <tag k='highway' v='footway' />
    <tag k='surface' v='asphalt' />
  </way>
  <way id='-113326' action='modify' visible='true'>
    <nd ref='-142086' />
    <nd ref='-142177' />
    <tag k='highway' v='footway' />
    <tag k='indoor' v='yes' />
  </way>
  <way id='-113327' action='modify' visible='true'>
    <nd ref='-142086' />
    <nd ref='-142179' />
    <nd ref='-142180' />
    <tag k='footway' v='sidewalk' />
    <tag k='highway' v='footway' />
    <tag k='surface' v='asphalt' />
  </way>
  <way id='-113328' action='modify' visible='true'>
    <nd ref='-142181' />
    <nd ref='-142180' />
    <tag k='highway' v='footway' />
    <tag k='indoor' v='yes' />
  </way>
  <way id='-113329' action='modify' visible='true'>
    <nd ref='-142182' />
    <nd ref='-142183' />
    <nd ref='-142184' />
    <nd ref='-142148' />
    <nd ref='-142185' />
    <nd ref='-142186' />
    <nd ref='-142187' />
    <nd ref='-142181' />
    <tag k='footway' v='sidewalk' />
    <tag k='highway' v='footway' />
    <tag k='lit' v='yes' />
    <tag k='surface' v='asphalt' />
  </way>
  <way id='-113330' action='modify' visible='true'>
    <nd ref='-142188' />
    <nd ref='-142186' />
    <tag k='footway' v='sidewalk' />
    <tag k='highway' v='footway' />
    <tag k='surface' v='asphalt' />
  </way>
  <way id='-113331' action='modify' visible='true'>
    <nd ref='-142164' />
    <nd ref='-142189' />
    <tag k='footway' v='sidewalk' />
    <tag k='highway' v='footway' />
    <tag k='surface' v='asphalt' />
  </way>
  <way id='-113332' action='modify' visible='true'>
    <nd ref='-142190' />
    <nd ref='-142189' />
    <tag k='highway' v='footway' />
    <tag k='indoor' v='yes' />
  </way>
  <way id='-113333' action='modify' visible='true'>
    <nd ref='-142091' />
    <nd ref='-142096' />
    <tag k='highway' v='footway' />
    <tag k='indoor' v='yes' />
  </way>
  <way id='-113334' action='modify' visible='true'>
    <nd ref='-142102' />
    <nd ref='-142091' />
    <tag k='footway' v='sidewalk' />
    <tag k='highway' v='footway' />
    <tag k='surface' v='asphalt' />
  </way>
  <way id='-113335' action='modify' visible='true'>
    <nd ref='-142191' />
    <nd ref='-142192' />
    <nd ref='-142193' />
    <nd ref='-142194' />
    <nd ref='-142195' />
    <nd ref='-142196' />
    <nd ref='-142197' />
    <nd ref='-142109' />
    <nd ref='-142129' />
    <nd ref='-142198' />
    <nd ref='-142199' />
    <nd ref='-142200' />
    <nd ref='-142201' />
    <nd ref='-142202' />
    <nd ref='-142203' />
    <nd ref='-142204' />
    <nd ref='-142205' />
    <nd ref='-142206' />
    <nd ref='-142152' />
    <nd ref='-142207' />
    <nd ref='-142208' />
    <nd ref='-142209' />
    <nd ref='-142148' />
    <nd ref='-142210' />
    <nd ref='-142211' />
    <nd ref='-142212' />
    <nd ref='-142213' />
    <nd ref='-142214' />
    <nd ref='-142215' />
    <nd ref='-142216' />
    <nd ref='-142217' />
    <nd ref='-142218' />
    <nd ref='-142219' />
    <nd ref='-142220' />
    <nd ref='-142221' />
    <nd ref='-142222' />
    <nd ref='-142223' />
    <nd ref='-142224' />
    <nd ref='-142225' />
    <nd ref='-142226' />
    <nd ref='-142227' />
    <nd ref='-142228' />
    <nd ref='-142229' />
    <nd ref='-142230' />
    <nd ref='-142231' />
    <nd ref='-142232' />
    <nd ref='-142233' />
    <nd ref='-142234' />
    <nd ref='-142235' />
    <nd ref='-142191' />
    <tag k='area' v='yes' />
    <tag k='highway' v='pedestrian' />
    <tag k='lit' v='yes' />
    <tag k='name' v='Rue de Lutèce' />
    <tag k='name:etymology:wikidata' v='Q90' />
    <tag k='smoothness' v='good' />
    <tag k='surface' v='paving_stones' />
  </way>
  <way id='-113336' action='modify' visible='true'>
    <nd ref='-142260' />
    <nd ref='-142273' />
    <nd ref='-142264' />
    <tag k='highway' v='footway' />
  </way>
  <way id='-113337' action='modify' visible='true'>
    <nd ref='-142245' />
    <nd ref='-142241' />
    <nd ref='-142275' />
    <nd ref='-142236' />
    <nd ref='-142258' />
    <nd ref='-142242' />
    <nd ref='-142246' />
    <nd ref='-142245' />
  </way>
  <way id='-113338' action='modify' visible='true'>
    <nd ref='-142272' />
    <nd ref='-142268' />
    <tag k='highway' v='footway' />
  </way>
  <way id='-113339' action='modify' visible='true'>
    <nd ref='-142252' />
    <nd ref='-142267' />
    <nd ref='-142247' />
    <nd ref='-142259' />
    <nd ref='-142243' />
    <nd ref='-142238' />
    <nd ref='-142252' />
  </way>
  <way id='-113340' action='modify' visible='true'>
    <nd ref='-142264' />
    <nd ref='-142239' />
    <tag k='highway' v='footway' />
  </way>
  <way id='-113341' action='modify' visible='true'>
    <nd ref='-142251' />
    <nd ref='-142246' />
    <nd ref='-142271' />
    <tag k='highway' v='footway' />
  </way>
  <way id='-113342' action='modify' visible='true'>
    <nd ref='-142260' />
    <nd ref='-142277' />
    <tag k='highway' v='footway' />
  </way>
  <way id='-113343' action='modify' visible='true'>
    <nd ref='-142265' />
    <nd ref='-142261' />
    <nd ref='-142266' />
    <nd ref='-142257' />
  </way>
  <way id='-113344' action='modify' visible='true'>
    <nd ref='-142249' />
    <nd ref='-142244' />
    <nd ref='-142240' />
    <nd ref='-142269' />
    <nd ref='-142249' />
  </way>
  <way id='-113345' action='modify' visible='true'>
    <nd ref='-142262' />
    <nd ref='-142250' />
    <tag k='highway' v='footway' />
  </way>
  <way id='-113346' action='modify' visible='true'>
    <nd ref='-142248' />
    <nd ref='-142276' />
    <nd ref='-142272' />
    <nd ref='-142255' />
    <nd ref='-142260' />
  </way>
  <way id='-113347' action='modify' visible='true'>
    <nd ref='-142270' />
    <nd ref='-142266' />
    <tag k='highway' v='footway' />
  </way>
  <way id='-113348' action='modify' visible='true'>
    <nd ref='-142263' />
    <nd ref='-142259' />
    <tag k='highway' v='footway' />
  </way>
  <way id='-113349' action='modify' visible='true'>
    <nd ref='-142237' />
    <nd ref='-142275' />
    <nd ref='-142271' />
    <nd ref='-142258' />
    <nd ref='-142254' />
    <tag k='highway' v='footway' />
  </way>
  <way id='-113350' action='modify' visible='true'>
    <nd ref='-142278' />
    <nd ref='-142279' />
    <nd ref='-142280' />
    <nd ref='-142281' />
    <nd ref='-142278' />
  </way>
  <way id='-113351' action='modify' visible='true'>
    <nd ref='-142282' />
    <nd ref='-142283' />
    <nd ref='-142284' />
    <nd ref='-142282' />
  </way>
  <way id='-113352' action='modify' visible='true'>
    <nd ref='-142257' />
    <nd ref='-142274' />
    <nd ref='-142262' />
    <nd ref='-142265' />
  </way>
  <way id='-113353' action='modify' visible='true'>
    <nd ref='-142285' />
    <nd ref='-142286' />
    <nd ref='-142287' />
    <nd ref='-142288' />
    <nd ref='-142285' />
  </way>
  <way id='-113354' action='modify' visible='true'>
    <nd ref='-142289' />
    <nd ref='-142290' />
    <nd ref='-142291' />
    <nd ref='-142292' />
    <nd ref='-142293' />
    <nd ref='-142294' />
    <nd ref='-142289' />
  </way>
  <way id='-113355' action='modify' visible='true'>
    <nd ref='-142295' />
    <nd ref='-142296' />
    <nd ref='-142297' />
    <nd ref='-142298' />
    <nd ref='-142295' />
  </way>
  <way id='-113356' action='modify' visible='true'>
    <nd ref='-142260' />
    <nd ref='-142256' />
    <nd ref='-142264' />
    <nd ref='-142253' />
    <nd ref='-142248' />
  </way>
  <way id='-113357' action='modify' visible='true'>
    <nd ref='-142299' />
    <nd ref='-142300' />
    <nd ref='-142301' />
    <nd ref='-142308' />
    <nd ref='-142302' />
    <nd ref='-142303' />
    <nd ref='-142307' />
    <nd ref='-142304' />
    <nd ref='-142305' />
    <nd ref='-142299' />
    <tag k='area' v='yes' />
    <tag k='highway' v='pedestrian' />
    <tag k='name' v='El Corner' />
  </way>
  <way id='-113358' action='modify' visible='true'>
    <nd ref='-142305' />
    <nd ref='-142306' />
    <nd ref='-142307' />
    <tag k='highway' v='footway' />
  </way>
  <way id='-113359' action='modify' visible='true'>
    <nd ref='-142308' />
    <nd ref='-142309' />
    <tag k='highway' v='footway' />
  </way>
  <way id='-113360' action='modify' visible='true'>
    <nd ref='-142316' />
    <nd ref='-142313' />
    <nd ref='-142310' />
    <nd ref='-142312' />
    <nd ref='-142317' />
    <nd ref='-142315' />
  </way>
  <way id='-113361' action='modify' visible='true'>
    <nd ref='-142317' />
    <nd ref='-142311' />
    <nd ref='-142310' />
    <tag k='highway' v='footway' />
  </way>
  <way id='-113362' action='modify' visible='true'>
    <nd ref='-142320' />
    <nd ref='-142318' />
    <tag k='highway' v='footway' />
  </way>
  <way id='-113363' action='modify' visible='true'>
    <nd ref='-142315' />
    <nd ref='-142314' />
    <nd ref='-142319' />
  </way>
  <way id='-113364' action='modify' visible='true'>
    <nd ref='-142319' />
    <nd ref='-142320' />
    <nd ref='-142316' />
  </way>
  <way id='-113365' action='modify' visible='true'>
    <nd ref='-142321' />
    <nd ref='-142324' />
    <nd ref='-142330' />
    <nd ref='-142323' />
    <nd ref='-142322' />
    <nd ref='-142331' />
    <nd ref='-142321' />
    <tag k='building' v='yes' />
  </way>
  <way id='-113366' action='modify' visible='true'>
    <nd ref='-142322' />
    <nd ref='-142325' />
    <nd ref='-142326' />
    <nd ref='-142327' />
    <nd ref='-142328' />
    <nd ref='-142332' />
    <nd ref='-142329' />
    <nd ref='-142330' />
    <nd ref='-142324' />
    <nd ref='-142321' />
    <nd ref='-142331' />
    <nd ref='-142322' />
    <tag k='area' v='yes' />
    <tag k='highway' v='pedestrian' />
    <tag k='name' v='Contournement de la Mairie' />
  </way>
  <way id='-113367' action='modify' visible='true'>
    <nd ref='-142333' />
    <nd ref='-142334' />
    <nd ref='-142335' />
    <nd ref='-142336' />
    <nd ref='-142337' />
    <nd ref='-142338' />
    <nd ref='-142333' />
    <tag k='building' v='yes' />
  </way>
  <way id='-113368' action='modify' visible='true'>
    <nd ref='-142337' />
    <nd ref='-142339' />
    <nd ref='-142340' />
    <nd ref='-142341' />
    <nd ref='-142342' />
    <nd ref='-142343' />
    <nd ref='-142344' />
    <nd ref='-142335' />
    <nd ref='-142334' />
    <nd ref='-142333' />
    <nd ref='-142338' />
    <nd ref='-142337' />
  </way>
  <way id='-113369' action='modify' visible='true'>
    <nd ref='-142345' />
    <nd ref='-142346' />
    <nd ref='-142347' />
    <nd ref='-142348' />
    <nd ref='-142345' />
  </way>
  <way id='-113370' action='modify' visible='true'>
    <nd ref='-142349' />
    <nd ref='-142350' />
    <nd ref='-142371' />
    <nd ref='-142351' />
    <nd ref='-142352' />
    <nd ref='-142353' />
    <nd ref='-142354' />
    <nd ref='-142355' />
    <nd ref='-142356' />
    <nd ref='-142357' />
    <nd ref='-142349' />
    <tag k='area' v='yes' />
    <tag k='highway' v='pedestrian' />
    <tag k='name' v='El Traversed Corner' />
  </way>
  <way id='-113371' action='modify' visible='true'>
    <nd ref='-142357' />
    <nd ref='-142358' />
    <nd ref='-142355' />
    <nd ref='-142352' />
    <nd ref='-142359' />
    <tag k='highway' v='footway' />
  </way>
  <way id='-113372' action='modify' visible='true'>
    <nd ref='-142360' />
    <nd ref='-142361' />
    <nd ref='-142362' />
    <nd ref='-142363' />
    <nd ref='-142364' />
    <tag k='highway' v='footway' />
  </way>
  <way id='-113373' action='modify' visible='true'>
    <nd ref='-142367' />
    <nd ref='-142363' />
    <nd ref='-142368' />
    <nd ref='-142369' />
    <nd ref='-142362' />
    <nd ref='-142370' />
  </way>
  <way id='-113374' action='modify' visible='true'>
    <nd ref='-142370' />
    <nd ref='-142360' />
    <nd ref='-142365' />
    <nd ref='-142366' />
    <nd ref='-142372' />
    <nd ref='-142367' />
  </way>
  <relation id='-99862' action='modify' visible='true'>
    <member type='way' ref='-113304' role='inner' />
    <member type='way' ref='-113305' role='inner' />
    <member type='way' ref='-113306' role='outer' />
    <member type='way' ref='-113307' role='inner' />
    <member type='way' ref='-113308' role='inner' />
    <member type='way' ref='-113309' role='inner' />
    <member type='way' ref='-113310' role='inner' />
    <member type='way' ref='-113311' role='outer' />
    <member type='way' ref='-113312' role='outer' />
    <tag k='highway' v='pedestrian' />
    <tag k='lit' v='yes' />
    <tag k='name' v='Place Louis Lépine' />
    <tag k='name:etymology:wikidata' v='Q3262574' />
    <tag k='name:ru' v='улица Лютес' />
    <tag k='surface' v='asphalt' />
    <tag k='type' v='multipolygon' />
    <tag k='wikidata' v='Q3389946' />
    <tag k='wikipedia' v='fr:Place Louis-Lépine' />
  </relation>
  <relation id='-99863' action='modify' visible='true'>
    <member type='way' ref='-113344' role='outer' />
    <member type='way' ref='-113350' role='inner' />
    <tag k='highway' v='pedestrian' />
    <tag k='name' v='Forever Alone Gruyère Plaza' />
    <tag k='type' v='multipolygon' />
  </relation>
  <relation id='-99864' action='modify' visible='true'>
    <member type='way' ref='-113343' role='outer' />
    <member type='way' ref='-113352' role='outer' />
    <member type='way' ref='-113351' role='inner' />
    <tag k='highway' v='pedestrian' />
    <tag k='name' v='Gruyère I/O Street' />
    <tag k='type' v='multipolygon' />
  </relation>
  <relation id='-99865' action='modify' visible='true'>
    <member type='way' ref='-113353' role='outer' />
    <member type='way' ref='-113337' role='outer' />
    <tag k='highway' v='pedestrian' />
    <tag k='name' v='Forget Centroid Gruyère Causeway' />
    <tag k='type' v='multipolygon' />
  </relation>
  <relation id='-99866' action='modify' visible='true'>
    <member type='way' ref='-113339' role='outer' />
    <member type='way' ref='-113355' role='inner' />
    <member type='way' ref='-113354' role='inner' />
    <tag k='highway' v='pedestrian' />
    <tag k='name' v='Place du Pipi Troué' />
    <tag k='type' v='multipolygon' />
  </relation>
  <relation id='-99867' action='modify' visible='true'>
    <member type='way' ref='-113346' role='outer' />
    <member type='way' ref='-113356' role='outer' />
    <tag k='highway' v='pedestrian' />
    <tag k='name' v='Distorded District' />
    <tag k='type' v='multipolygon' />
  </relation>
  <relation id='-99868' action='modify' visible='true'>
    <member type='way' ref='-113363' role='outer' />
    <member type='way' ref='-113364' role='outer' />
    <member type='way' ref='-113360' role='outer' />
    <tag k='highway' v='pedestrian' />
    <tag k='name' v='El Multi-Corner' />
    <tag k='type' v='multipolygon' />
  </relation>
  <relation id='-99869' action='modify' visible='true'>
    <member type='way' ref='-113368' role='outer' />
    <member type='way' ref='-113369' role='inner' />
    <tag k='highway' v='pedestrian' />
    <tag k='name' v='Contournement de la Mairie' />
    <tag k='type' v='multipolygon' />
  </relation>
  <relation id='-99870' action='modify' visible='true'>
    <member type='way' ref='-113373' role='outer' />
    <member type='way' ref='-113374' role='outer' />
    <tag k='highway' v='pedestrian' />
    <tag k='name' v='El Traversed Multi-Corner' />
    <tag k='type' v='multipolygon' />
  </relation>
</osm>
