<?xml version='1.0' encoding='UTF-8'?>
<osm version='0.6' generator='JOSM'>
  <node id='-138467' action='modify' visible='true' lat='48.83847437923' lon='2.65317261953' />
  <node id='-138468' action='modify' visible='true' lat='48.83843573809' lon='2.65315261986' />
  <node id='-138469' action='modify' visible='true' lat='48.83843064255' lon='2.65323777972' />
  <node id='1977142834' timestamp='2018-11-20T12:33:07Z' uid='382352' user='kfoisnet' visible='true' version='2' changeset='64695162' lat='48.8359582' lon='2.6581842' />
  <node id='1977142866' timestamp='2018-11-20T12:33:07Z' uid='382352' user='kfoisnet' visible='true' version='2' changeset='64695162' lat='48.8352735' lon='2.6591746' />
  <node id='6076192025' timestamp='2018-11-20T12:33:06Z' uid='382352' user='kfoisnet' visible='true' version='1' changeset='64695162' lat='48.834766' lon='2.6576388' />
  <node id='8610511818' timestamp='2022-03-24T23:43:23Z' uid='10731965' user='Hydrel' visible='true' version='4' changeset='118886903' lat='48.8383869' lon='2.6532812'>
    <tag k='addr:postcode' v='77200' />
    <tag k='amenity' v='doctors' />
    <tag k='healthcare' v='doctor' />
    <tag k='internet_access' v='wlan' />
    <tag k='name' v='Centre Médical Occident' />
    <tag k='phone' v='+33 1 87 44 41 41' />
  </node>
  <way id='-105445' action='modify' visible='true'>
    <nd ref='-138467' />
    <nd ref='-138468' />
    <nd ref='-138469' />
    <nd ref='-138467' />
    <tag k='addr:postcode' v='77200' />
    <tag k='amenity' v='doctors' />
    <tag k='healthcare' v='doctor' />
    <tag k='internet_access' v='wlan' />
    <tag k='name' v='Centre Médical Occident' />
    <tag k='phone' v='+33 1 87 44 41 41' />
  </way>
  <way id='186965640' action='modify' timestamp='2020-12-07T11:30:56Z' uid='5426135' user='Carto&apos;Cité' visible='true' version='8' changeset='95417955'>
    <nd ref='1977142866' />
    <nd ref='6076192025' />
    <nd ref='1977142834' />
    <nd ref='1977142866' />
    <tag k='addr:city' v='Torcy' />
    <tag k='addr:housenumber' v='6' />
    <tag k='addr:postcode' v='77200' />
    <tag k='addr:street' v='Avenue Jean Moulin' />
    <tag k='amenity' v='school' />
    <tag k='name' v='Lycée Jean Moulin' />
    <tag k='operator:type' v='public' />
    <tag k='ref:UAI' v='0772120L' />
    <tag k='school:FR' v='lycée' />
    <tag k='source' v='data.gouv.fr:Ministère de l&apos;Éducation nationale, de la Jeunesse et de la Vie associative - 05/2012' />
  </way>
</osm>
