<?xml version='1.0' encoding='UTF-8'?>
<osm version='0.6' generator='JOSM'>
  <node id='-144476' action='modify' visible='true' lat='48.22364158827' lon='-1.78134620324' />
  <node id='-144477' action='modify' visible='true' lat='48.22323148064' lon='-1.78102970257' />
  <node id='-144478' action='modify' visible='true' lat='48.22353564353' lon='-1.78126328355'>
    <tag k='highway' v='crossing' />
    <tag k='tactile_paving' v='yes' />
  </node>
  <node id='-144479' action='modify' visible='true' lat='48.2230438486' lon='-1.78301990166' />
  <node id='-144480' action='modify' visible='true' lat='48.22323684154' lon='-1.7824646844'>
    <tag k='highway' v='crossing' />
  </node>
  <node id='-144481' action='modify' visible='true' lat='48.22357906935' lon='-1.78129663238' />
  <node id='-144482' action='modify' visible='true' lat='48.22382207033' lon='-1.78062468901'>
    <tag k='highway' v='crossing' />
  </node>
  <node id='-144483' action='modify' visible='true' lat='48.22405437303' lon='-1.78010970488' />
  <node id='-144484' action='modify' visible='true' lat='48.22286783126' lon='-1.78209051624' />
  <node id='-144485' action='modify' visible='true' lat='48.22278294958' lon='-1.78234264389'>
    <tag k='highway' v='crossing' />
  </node>
  <node id='-144486' action='modify' visible='true' lat='48.2226927068' lon='-1.78259879485' />
  <node id='-144487' action='modify' visible='true' lat='48.22258504025' lon='-1.78422153063' />
  <node id='-144488' action='modify' visible='true' lat='48.22242867829' lon='-1.78405053981' />
  <node id='-144489' action='modify' visible='true' lat='48.22253277073' lon='-1.78423360057'>
    <tag k='barrier' v='kerb' />
    <tag k='crossing:bollard' v='contrasted' />
    <tag k='kerb' v='raised' />
    <tag k='tactile_paving' v='contrasted' />
  </node>
  <node id='-144490' action='modify' visible='true' lat='48.22256046912' lon='-1.78412832387'>
    <tag k='barrier' v='kerb' />
    <tag k='kerb' v='flush' />
    <tag k='tactile_paving' v='contrasted' />
  </node>
  <node id='-144491' action='modify' visible='true' lat='48.22254691547' lon='-1.78417983893'>
    <tag k='crossing' v='uncontrolled' />
    <tag k='crossing:island' v='no' />
    <tag k='crossing:markings' v='zebra' />
    <tag k='highway' v='crossing' />
  </node>
  <node id='-144492' action='modify' visible='true' lat='48.22231029008' lon='-1.78103506699' />
  <node id='-144493' action='modify' visible='true' lat='48.22213695072' lon='-1.78089961544'>
    <tag k='highway' v='crossing' />
  </node>
  <node id='-144494' action='modify' visible='true' lat='48.22313659106' lon='-1.78254534217' />
  <node id='-144495' action='modify' visible='true' lat='48.22321785396' lon='-1.78228718228' />
  <node id='-144496' action='modify' visible='true' lat='48.22317669797' lon='-1.78241792867' />
  <node id='-144497' action='modify' visible='true' lat='48.2231924017' lon='-1.78242906538' />
  <node id='-144498' action='modify' visible='true' lat='48.22313518879' lon='-1.78252602064' />
  <node id='-144499' action='modify' visible='true' lat='48.22321172531' lon='-1.78228287577' />
  <node id='-144500' action='modify' visible='true' lat='48.22317057955' lon='-1.78241358963' />
  <node id='-144501' action='modify' visible='true' lat='48.22093472738' lon='-1.78830988772'>
    <tag k='barrier' v='kerb' />
    <tag k='kerb' v='flush' />
  </node>
  <node id='-144502' action='modify' visible='true' lat='48.22095393815' lon='-1.78830586441'>
    <tag k='highway' v='crossing' />
  </node>
  <node id='-144503' action='modify' visible='true' lat='48.22097716977' lon='-1.7882877595' />
  <node id='-144504' action='modify' visible='true' lat='48.2209990611' lon='-1.78826697238'>
    <tag k='highway' v='crossing' />
  </node>
  <node id='-144505' action='modify' visible='true' lat='48.2210164848' lon='-1.78825490244'>
    <tag k='barrier' v='kerb' />
    <tag k='kerb' v='flush' />
  </node>
  <node id='-144506' action='modify' visible='true' lat='48.22122914281' lon='-1.78827434845' />
  <node id='-144507' action='modify' visible='true' lat='48.22114157785' lon='-1.78819119997' />
  <node id='-144508' action='modify' visible='true' lat='48.22118655193' lon='-1.7882339057'>
    <tag k='highway' v='crossing' />
  </node>
  <node id='-144515' action='modify' visible='true' lat='48.22270610875' lon='-1.784078703' />
  <node id='-144516' action='modify' visible='true' lat='48.22263462923' lon='-1.78402908213' />
  <node id='-144517' action='modify' visible='true' lat='48.22267002858' lon='-1.78405365625'>
    <tag k='highway' v='crossing' />
  </node>
  <node id='-144541' action='modify' visible='true' lat='48.22256818405' lon='-1.78454507515'>
    <tag k='crossing' v='traffic_signals' />
    <tag k='crossing:markings' v='surface;zebra' />
    <tag k='highway' v='crossing' />
    <tag k='kerb' v='lowered' />
  </node>
  <node id='-144542' action='modify' visible='true' lat='48.22244994692' lon='-1.78441577603' />
  <node id='-144543' action='modify' visible='true' lat='48.22260630881' lon='-1.78458676685' />
  <node id='-144544' action='modify' visible='true' lat='48.22258173769' lon='-1.78449356009'>
    <tag k='tactile_paving' v='no' />
  </node>
  <node id='-144545' action='modify' visible='true' lat='48.22255403931' lon='-1.78459883679'>
    <tag k='tactile_paving' v='yes' />
  </node>
  <node id='-144546' action='modify' visible='true' lat='48.22203687914' lon='-1.78586840898'>
    <tag k='crossing' v='uncontrolled' />
    <tag k='crossing:markings' v='pictograms' />
    <tag k='highway' v='crossing' />
    <tag k='kerb' v='no' />
    <tag k='surface' v='asphalt' />
  </node>
  <node id='-144569' action='modify' visible='true' lat='48.22175095671' lon='-1.78665161401' />
  <node id='-144570' action='modify' visible='true' lat='48.22179563219' lon='-1.78654700786'>
    <tag k='crossing' v='uncontrolled' />
    <tag k='crossing:island' v='no' />
    <tag k='crossing:markings' v='zebra' />
    <tag k='highway' v='crossing' />
    <tag k='kerb' v='raised' />
    <tag k='tactile_paving' v='no' />
  </node>
  <node id='-144571' action='modify' visible='true' lat='48.22183494659' lon='-1.78644240171'>
    <tag k='crossing' v='uncontrolled' />
    <tag k='crossing:island' v='no' />
    <tag k='crossing:markings' v='zebra' />
    <tag k='highway' v='crossing' />
    <tag k='kerb' v='flush' />
    <tag k='tactile_paving' v='yes' />
  </node>
  <node id='-144572' action='modify' visible='true' lat='48.22199935191' lon='-1.7859649685'>
    <tag k='crossing' v='uncontrolled' />
    <tag k='crossing:markings' v='pictograms' />
    <tag k='highway' v='crossing' />
    <tag k='surface' v='asphalt' />
    <tag k='tactile_paving' v='yes' />
  </node>
  <node id='-144573' action='modify' visible='true' lat='48.22218430727' lon='-1.78543389112'>
    <tag k='crossing' v='traffic_signals' />
    <tag k='crossing:markings' v='zebra' />
    <tag k='highway' v='crossing' />
  </node>
  <node id='-144578' action='modify' visible='true' lat='48.22205296223' lon='-1.7860239771' />
  <node id='-144579' action='modify' visible='true' lat='48.22192608439' lon='-1.78589254886' />
  <node id='-144580' action='modify' visible='true' lat='48.2218251171' lon='-1.78657785192' />
  <node id='-144581' action='modify' visible='true' lat='48.22176257144' lon='-1.78651750222' />
  <node id='-144584' action='modify' visible='true' lat='48.22224238401' lon='-1.78524211183'>
    <tag k='crossing' v='uncontrolled' />
    <tag k='crossing:island' v='no' />
    <tag k='crossing:markings' v='zebra' />
    <tag k='highway' v='crossing' />
    <tag k='kerb' v='lowered' />
    <tag k='tactile_paving' v='partial' />
  </node>
  <node id='-144585' action='modify' visible='true' lat='48.22213516461' lon='-1.78538292915'>
    <tag k='barrier' v='kerb' />
    <tag k='kerb' v='raised' />
  </node>
  <node id='-144586' action='modify' visible='true' lat='48.22222808888' lon='-1.78547680646'>
    <tag k='barrier' v='kerb' />
    <tag k='kerb' v='lowered' />
    <tag k='tactile_paving' v='yes' />
  </node>
  <node id='-144587' action='modify' visible='true' lat='48.22229063396' lon='-1.78549289972'>
    <tag k='barrier' v='kerb' />
    <tag k='kerb' v='raised' />
  </node>
  <node id='-144595' action='modify' visible='true' lat='48.22230492997' lon='-1.78509056836' />
  <node id='-144596' action='modify' visible='true' lat='48.22227812495' lon='-1.78527832299'>
    <tag k='tactile_paving' v='yes' />
  </node>
  <node id='-144597' action='modify' visible='true' lat='48.22216554372' lon='-1.78518712789'>
    <tag k='tactile_paving' v='no' />
  </node>
  <node id='-144603' action='modify' visible='true' lat='48.22234781797' lon='-1.78547948867' />
  <node id='-144687' action='modify' visible='true' lat='48.22319448746' lon='-1.7825864009'>
    <tag k='highway' v='crossing' />
  </node>
  <node id='-144688' action='modify' visible='true' lat='48.22323298283' lon='-1.78261370091' />
  <node id='-144689' action='modify' visible='true' lat='48.22314130722' lon='-1.78253035967'>
    <tag k='highway' v='crossing' />
  </node>
  <node id='-144690' action='modify' visible='true' lat='48.22319961127' lon='-1.78257170751'>
    <tag k='highway' v='crossing' />
  </node>
  <node id='-144691' action='modify' visible='true' lat='48.22323617448' lon='-1.78259763728' />
  <node id='-144717' action='modify' visible='true' lat='48.22317630461' lon='-1.78255517897' />
  <way id='-117558' action='modify' visible='true'>
    <nd ref='-144476' />
    <nd ref='-144481' />
    <nd ref='-144478' />
    <nd ref='-144477' />
    <tag k='highway' v='residential' />
  </way>
  <way id='-117559' action='modify' visible='true'>
    <nd ref='-144479' />
    <nd ref='-144687' />
    <nd ref='-144690' />
    <nd ref='-144480' />
    <tag k='highway' v='tertiary' />
  </way>
  <way id='-117560' action='modify' visible='true'>
    <nd ref='-144476' />
    <nd ref='-144480' />
    <tag k='highway' v='tertiary' />
    <tag k='oneway' v='yes' />
  </way>
  <way id='-117561' action='modify' visible='true'>
    <nd ref='-144480' />
    <nd ref='-144481' />
    <nd ref='-144482' />
    <tag k='highway' v='tertiary' />
    <tag k='oneway' v='yes' />
  </way>
  <way id='-117562' action='modify' visible='true'>
    <nd ref='-144482' />
    <nd ref='-144483' />
    <tag k='highway' v='tertiary' />
    <tag k='oneway' v='yes' />
  </way>
  <way id='-117563' action='modify' visible='true'>
    <nd ref='-144484' />
    <nd ref='-144485' />
    <tag k='highway' v='residential' />
  </way>
  <way id='-117564' action='modify' visible='true'>
    <nd ref='-144486' />
    <nd ref='-144485' />
    <tag k='highway' v='footway' />
  </way>
  <way id='-117565' action='modify' visible='true'>
    <nd ref='-144487' />
    <nd ref='-144491' />
    <nd ref='-144488' />
    <tag k='highway' v='residential' />
  </way>
  <way id='-117566' action='modify' visible='true'>
    <nd ref='-144489' />
    <nd ref='-144491' />
    <nd ref='-144490' />
    <tag k='footway' v='crossing' />
    <tag k='highway' v='footway' />
    <tag k='surface' v='asphalt' />
  </way>
  <way id='-117567' action='modify' visible='true'>
    <nd ref='-144492' />
    <nd ref='-144493' />
    <tag k='highway' v='residential' />
  </way>
  <way id='-117568' action='modify' visible='true'>
    <nd ref='-144688' />
    <nd ref='-144687' />
    <nd ref='-144494' />
    <nd ref='-144689' />
    <nd ref='-144496' />
    <nd ref='-144495' />
    <tag k='highway' v='cycleway' />
  </way>
  <way id='-117569' action='modify' visible='true'>
    <nd ref='-144497' />
    <nd ref='-144496' />
    <nd ref='-144500' />
    <tag k='footway' v='crossing' />
    <tag k='highway' v='footway' />
  </way>
  <way id='-117570' action='modify' visible='true'>
    <nd ref='-144717' />
    <nd ref='-144689' />
    <nd ref='-144498' />
    <nd ref='-144500' />
    <nd ref='-144499' />
    <tag k='highway' v='footway' />
  </way>
  <way id='-117571' action='modify' visible='true'>
    <nd ref='-144501' />
    <nd ref='-144502' />
    <nd ref='-144503' />
    <nd ref='-144504' />
    <nd ref='-144505' />
    <tag k='footway' v='crossing' />
    <tag k='highway' v='footway' />
  </way>
  <way id='-117572' action='modify' visible='true'>
    <nd ref='-144506' />
    <nd ref='-144508' />
    <nd ref='-144507' />
    <tag k='highway' v='footway' />
  </way>
  <way id='-117579' action='modify' visible='true'>
    <nd ref='-144515' />
    <nd ref='-144517' />
    <nd ref='-144516' />
    <tag k='crossing:barrier' v='no' />
    <tag k='crossing:buffer_marking' v='both' />
    <tag k='footway' v='crossing' />
    <tag k='highway' v='footway' />
  </way>
  <way id='-117605' action='modify' visible='true'>
    <nd ref='-144545' />
    <nd ref='-144541' />
    <nd ref='-144544' />
    <tag k='footway' v='crossing' />
    <tag k='highway' v='footway' />
  </way>
  <way id='-117606' action='modify' visible='true'>
    <nd ref='-144543' />
    <nd ref='-144541' />
    <nd ref='-144542' />
    <tag k='highway' v='residential' />
  </way>
  <way id='-117607' action='modify' visible='true'>
    <nd ref='-144569' />
    <nd ref='-144570' />
    <nd ref='-144571' />
    <nd ref='-144572' />
    <nd ref='-144546' />
    <nd ref='-144573' />
    <nd ref='-144584' />
    <nd ref='-144595' />
    <tag k='highway' v='living_street' />
    <tag k='maxspeed' v='20' />
    <tag k='name' v='Route aux Passages Piétons' />
    <tag k='oneway' v='yes' />
    <tag k='oneway:bicycle' v='no' />
    <tag k='source' v='mapillary' />
    <tag k='surface' v='asphalt' />
    <tag k='traffic_sign' v='FR:B52' />
  </way>
  <way id='-117615' action='modify' visible='true'>
    <nd ref='-144579' />
    <nd ref='-144572' />
    <nd ref='-144578' />
    <tag k='crossing' v='uncontrolled' />
    <tag k='crossing:markings' v='zebra' />
    <tag k='footway' v='crossing' />
    <tag k='highway' v='footway' />
    <tag k='surface' v='asphalt' />
  </way>
  <way id='-117631' action='modify' visible='true'>
    <nd ref='-144580' />
    <nd ref='-144570' />
    <nd ref='-144581' />
    <tag k='crossing' v='uncontrolled' />
    <tag k='crossing:island' v='no' />
    <tag k='crossing:markings' v='zebra' />
    <tag k='footway' v='crossing' />
    <tag k='highway' v='footway' />
    <tag k='surface' v='asphalt' />
    <tag k='tactile_paving' v='no' />
  </way>
  <way id='-117637' action='modify' visible='true'>
    <nd ref='-144585' />
    <nd ref='-144573' />
    <nd ref='-144586' />
    <tag k='footway' v='crossing' />
    <tag k='highway' v='footway' />
    <tag k='kerb' v='flush' />
    <tag k='surface' v='asphalt' />
    <tag k='tactile_paving' v='yes' />
  </way>
  <way id='-117643' action='modify' visible='true'>
    <nd ref='-144586' />
    <nd ref='-144587' />
    <nd ref='-144603' />
    <tag k='highway' v='footway' />
    <tag k='surface' v='asphalt' />
  </way>
  <way id='-117648' action='modify' visible='true'>
    <nd ref='-144596' />
    <nd ref='-144584' />
    <nd ref='-144597' />
    <tag k='footway' v='crossing' />
    <tag k='highway' v='footway' />
    <tag k='surface' v='asphalt' />
  </way>
  <way id='-117672' action='modify' visible='true'>
    <nd ref='-144691' />
    <nd ref='-144690' />
    <nd ref='-144717' />
    <tag k='footway' v='crossing' />
    <tag k='highway' v='footway' />
  </way>
</osm>
